lemme	catégorie	Ratio CA/CC	CC par M	CA par M	CA Freq	N-grammes	Disciplines	Tranches	Disciplines > 1	Freq-anthropo	Freq-eco	Freq-geo	Freq-histoire	Freq-ling	Freq-psycho	Freq-sciedu	Freq-sciepo	Freq-scinfo	Freq-socio
abondant	A	3.529	4.045	14.273	69	0	9	41	7	5	5	12	21	0	3	3	5	4	11
aborder	V	2.915	30.722	89.567	433	0	10	94	6	53	19	43	38	51	27	33	24	104	41
aboutir	V	3.198	18.757	59.987	290	0	10	93	5	26	34	35	33	22	10	18	37	30	45
absence	N	3.191	44.530	142.108	687	0	10	97	7	47	77	54	65	70	122	55	75	54	68
absent	A	1.313	19.374	25.443	123	0	10	61	5	12	6	15	17	15	12	12	12	4	18
abstrait	A	8.449	3.011	25.443	123	0	9	46	6	17	0	3	15	39	5	11	4	6	23
accéder	V	2.437	22.746	55.436	268	0	10	77	6	30	11	17	17	16	21	44	23	47	42
accentuer	V	3.173	9.843	31.235	151	0	10	66	6	14	6	21	33	13	18	14	12	4	16
accompagner	V	1.233	100.801	124.318	601	0	10	99	5	72	25	56	86	35	54	42	58	70	103
accorder	V	2.164	61.645	133.420	645	0	10	99	7	57	60	45	96	49	50	53	78	48	109
accroissement	N	16.854	2.651	44.680	216	0	10	59	7	1	102	26	15	3	10	11	9	9	30
accroître	V	5.578	15.353	85.637	414	0	10	88	6	17	147	35	25	6	24	38	45	26	51
accru	A	4.432	2.987	13.239	64	0	9	40	6	5	10	14	6	0	2	4	8	8	7
acquisition	N	7.100	8.770	62.263	301	0	10	68	5	19	16	26	16	46	42	87	17	26	6
acteur	N	6.585	61.597	405.638	2006	45	10	96	6	125	32	291	137	36	85	97	462	399	342
activité	N	6.554	101.185	663.169	3206	0	10	100	4	214	285	274	162	198	481	393	222	476	501
actuel	A	1.959	55.951	109.632	530	0	10	95	4	81	16	103	38	49	26	77	30	46	64
actuellement	ADV	1.045	42.544	44.473	215	0	10	82	7	22	16	39	15	15	17	17	22	28	24
adapter	V	2.680	35.816	95.980	464	0	10	92	6	33	32	48	38	14	91	47	44	73	44
adéquat	A	3.970	4.325	17.169	83	0	10	46	5	10	11	4	4	10	12	16	4	6	6
admettre	V	1.208	65.586	79.225	383	0	10	88	6	50	62	12	33	96	19	33	18	15	45
adopter	V	2.951	44.714	131.972	638	0	10	99	6	68	73	37	99	38	66	55	87	51	64
adoption	N	3.795	13.135	49.851	241	0	10	64	7	74	34	4	29	9	12	7	27	12	33
advenir	V	2.435	6.287	15.307	74	0	9	46	6	14	1	2	9	5	0	8	8	17	10
affecter	V	3.970	24.748	98.255	475	0	10	90	7	39	108	33	37	35	75	53	43	10	42
affiner	V	5.612	3.244	18.203	88	0	10	53	4	2	10	12	6	8	7	16	11	8	8
affirmation	N	7.888	6.215	49.024	237	0	10	77	4	34	5	10	45	27	5	28	37	10	36
affirmer	V	1.315	107.561	141.487	684	0	10	95	4	96	9	56	149	49	17	72	87	60	89
affranchir	V	4.368	3.788	16.548	80	0	10	43	7	11	3	14	12	7	6	4	7	11	5
agir	V	2.126	252.379	536.576	2594	0	10	100	4	280	125	172	319	308	226	328	246	288	302
ailleurs	ADV	1.093	49.199	53.782	260	0	10	76	5	54	6	27	53	32	2	22	22	8	34
ainsi	ADV	4.185	239.725	1003.235	4850	0	10	100	6	410	381	500	660	394	397	410	642	453	603
aisément	ADV	3.908	7.833	30.614	148	0	10	66	7	10	43	7	14	16	8	12	12	7	19
ajuster	V	2.927	8.482	24.822	120	0	10	57	6	6	22	5	7	3	26	15	17	8	11
aléatoire	A	8.998	4.253	38.268	185	0	10	51	7	6	88	7	5	5	32	24	5	6	7
alimenter	V	1.351	18.981	25.650	124	0	10	59	7	9	8	21	12	6	4	9	26	21	8
alternatif	A	5.869	7.649	44.887	217	0	10	57	5	7	43	11	5	59	13	2	33	19	25
alternative	N	3.812	9.443	35.992	174	0	10	57	6	5	15	16	8	21	35	12	41	7	14
ambigu	A	10.617	3.332	35.372	171	0	10	68	6	21	21	13	17	39	19	6	9	11	15
ambiguïté	N	8.952	3.420	30.614	148	0	10	64	7	20	9	8	14	33	11	9	12	20	12
amélioration	N	3.466	10.980	38.061	184	0	10	63	6	5	38	31	14	5	23	23	18	7	20
améliorer	V	1.649	36.377	59.987	290	0	10	72	5	14	56	37	18	7	46	42	23	31	16
amener	V	0.996	111.701	111.287	538	0	10	94	6	32	24	43	62	53	85	66	53	75	45
amorcer	V	2.756	6.455	17.789	86	0	9	47	4	10	0	17	9	4	3	12	10	9	12
ampleur	N	3.427	15.273	52.334	253	0	10	79	5	14	28	38	29	1	7	49	31	15	41
amplifier	V	2.096	7.304	15.307	74	0	10	40	5	3	2	14	7	7	3	11	4	9	14
analogue	A	10.769	2.267	24.409	118	0	10	46	7	18	37	4	10	21	4	8	7	3	6
analyse	N	17.737	40.037	710.125	3433	0	10	100	6	147	278	227	158	429	637	448	384	352	373
analyser	V	8.196	23.522	192.787	932	0	10	99	3	56	105	82	49	131	117	100	106	111	75
analytique	A	32.671	0.937	30.614	148	0	10	47	7	13	36	4	8	14	10	11	9	9	34
ancrer	V	3.398	6.087	20.685	100	0	10	51	4	13	1	10	17	3	3	13	17	15	8
angle	N	1.186	28.264	33.510	162	0	10	73	5	17	5	17	22	15	15	10	18	27	16
année	N	1.460	540.638	789.349	3816	0	10	100	5	352	226	436	720	118	191	491	610	219	453
annexe	N	19.596	2.523	49.438	239	0	10	54	6	6	106	7	15	4	24	37	16	20	4
annuel	A	1.349	24.684	33.303	161	0	10	62	6	12	20	32	30	1	4	13	22	13	14
antérieur	A	9.029	7.056	63.711	308	0	10	88	5	18	34	21	45	32	28	45	22	31	32
apparaître	V	4.167	101.458	422.807	2044	0	10	100	6	178	170	212	283	170	206	195	194	165	271
apparence	N	1.739	21.768	37.854	183	0	10	67	6	25	2	8	54	25	5	13	16	8	27
apparent	A	3.649	6.463	23.581	114	0	10	67	6	12	7	8	16	14	6	16	16	9	10
apparenter	V	5.088	5.326	27.098	131	0	10	63	6	17	11	5	14	20	9	10	21	11	13
apparition	N	2.951	18.645	55.023	266	0	10	82	6	22	12	23	33	26	57	16	20	21	36
appartenance	N	19.964	4.621	92.256	446	0	10	79	6	77	10	22	36	15	51	58	46	35	96
appartenir	V	1.553	80.995	125.766	608	0	10	98	5	76	34	50	100	64	60	51	63	38	72
application	N	5.278	18.461	97.428	471	0	10	91	5	22	53	46	36	48	35	28	63	100	40
appliquer	V	3.040	39.941	121.422	587	0	10	97	4	30	96	51	53	81	56	39	75	35	71
apport	N	7.109	5.470	38.888	188	0	10	75	6	17	13	22	20	15	19	24	19	20	19
apporter	V	0.948	128.024	121.422	587	0	10	97	6	57	28	42	72	33	75	59	93	63	65
appréciation	N	5.734	4.004	22.961	111	0	10	54	6	12	14	9	12	2	8	18	9	9	18
appréhender	V	10.188	6.944	70.744	342	0	10	84	4	27	24	34	7	38	27	54	40	51	40
appréhension	N	4.317	5.414	23.374	113	0	10	49	5	9	4	19	3	21	3	16	13	15	10
approche	N	9.519	30.706	292.283	1413	0	10	100	4	89	160	161	59	188	171	127	157	158	143
approfondi	A	6.671	2.170	14.480	70	0	10	48	5	6	3	5	9	3	7	8	10	10	9
approfondir	V	5.931	4.325	25.650	124	0	10	67	4	10	9	15	9	2	16	20	17	12	14
appropriation	N	58.112	0.705	40.957	198	0	10	66	8	20	4	33	22	8	2	15	9	70	15
approprié	A	3.707	5.134	19.030	92	0	10	47	6	10	6	4	1	24	12	14	7	7	7
appuyer	V	2.452	65.041	159.483	771	0	10	97	4	54	28	71	71	76	78	81	116	114	82
apte	A	2.694	4.453	11.997	58	0	8	40	5	7	0	7	14	9	0	5	7	4	5
aptitude	N	6.254	4.597	28.753	139	0	9	60	6	15	0	3	10	7	39	29	7	9	20
argument	N	6.370	23.250	148.106	716	0	10	93	8	26	58	21	46	250	139	32	55	25	64
article	N	6.965	59.186	412.257	1993	0	10	100	7	146	198	133	209	221	81	143	167	507	188
articulation	N	13.872	4.101	56.884	275	0	10	70	4	16	5	25	7	39	8	40	39	42	54
articuler	V	4.978	9.058	45.094	218	0	10	80	6	18	7	18	14	28	11	39	36	28	19
aspect	N	5.477	29.121	159.483	771	0	10	99	5	81	28	43	72	133	133	62	49	78	92
assigner	V	4.884	6.183	30.200	146	0	10	63	6	31	3	10	14	20	15	20	16	10	7
assimiler	V	5.378	6.231	33.510	162	0	10	68	5	20	26	13	23	17	17	6	15	6	19
association	N	1.151	157.240	180.996	875	0	10	90	4	92	3	80	96	39	51	79	208	87	140
associer	V	8.347	30.258	252.567	1221	0	10	99	5	73	146	113	84	245	114	77	130	100	139
assumer	V	1.876	23.923	44.887	217	0	10	74	5	38	8	11	25	26	6	31	15	30	27
attacher	V	1.617	46.172	74.674	361	0	10	91	5	59	21	27	45	24	13	46	41	39	46
atteindre	V	1.073	123.955	133.006	643	0	10	97	7	50	113	90	71	36	37	87	60	35	64
attendu	A	3.945	5.086	20.065	97	0	10	46	7	8	3	2	7	13	20	24	4	7	9
attentif	A	1.793	13.727	24.615	119	0	10	61	6	15	3	6	27	3	8	12	12	20	13
atténuer	V	2.880	7.040	20.272	98	0	10	54	6	8	16	15	12	4	9	8	5	7	14
attester	V	8.410	5.534	46.542	225	0	10	72	5	33	1	16	48	31	23	20	21	14	18
attribuer	V	3.959	23.410	92.670	448	0	10	94	7	43	16	26	65	60	88	42	41	31	36
attribution	N	6.535	5.951	38.888	188	0	10	60	7	13	1	9	7	18	78	6	19	12	25
au-delà	ADV	2.138	7.256	15.514	75	0	10	47	5	11	8	12	12	3	2	12	8	3	4
augmentation	N	2.552	33.149	84.603	409	0	10	73	6	5	90	50	38	4	66	30	34	14	78
augmenter	V	2.282	63.455	144.797	700	0	10	86	8	11	276	51	61	6	117	33	33	35	77
auparavant	ADV	1.101	35.320	38.888	188	0	10	79	5	14	5	18	46	7	16	9	27	18	28
aussi	ADV	1.061	1138.789	1208.019	5840	0	10	100	4	713	313	532	974	457	339	511	627	598	776
autant	ADV	1.067	92.656	98.876	478	0	10	96	6	68	19	35	67	30	32	44	70	65	48
auteur	N	3.818	83.261	317.932	1537	0	10	100	5	150	65	70	258	182	150	97	112	260	193
automatique	A	1.629	13.711	22.340	108	0	10	40	6	7	3	3	2	40	20	11	4	13	5
autonome	A	4.585	11.189	51.299	248	0	10	75	5	7	2	24	17	59	17	29	40	15	38
autoriser	V	1.435	49.576	71.157	344	0	10	93	6	48	29	24	61	41	12	19	38	26	46
autrement	ADV	1.106	28.993	32.062	155	0	10	61	5	28	2	1	24	26	9	15	10	17	23
avancée	N	2.472	8.369	20.685	100	0	10	49	5	3	9	20	13	2	7	13	7	11	15
avantage	N	1.707	38.163	65.159	315	0	10	89	7	28	46	39	49	11	25	26	43	19	29
avérer	V	5.230	17.283	90.395	437	0	10	93	7	40	27	34	46	38	53	68	43	52	36
axe	N	5.633	12.926	72.812	352	0	10	65	7	7	4	85	9	26	102	45	19	25	30
baisse	N	1.349	43.993	59.367	287	0	9	57	6	0	107	51	25	1	11	29	18	5	40
base	N	2.181	75.773	165.275	1128	329	10	99	3	69	110	101	60	175	134	135	108	94	142
baser	V	2.451	26.077	63.917	309	0	10	79	5	10	33	31	13	46	70	22	20	31	33
biais	N	15.413	3.476	53.575	259	0	10	58	7	3	94	15	10	31	14	42	21	15	14
bibliographie	N	89.900	0.833	74.881	362	0	9	67	4	73	0	75	20	2	34	45	1	71	41
bibliographique	A	246.223	0.120	29.580	143	0	10	53	7	33	27	2	4	9	6	2	3	44	13
bilan	N	1.004	41.222	41.371	200	0	10	54	6	8	23	7	22	18	3	64	10	25	20
bref	A	0.925	27.735	25.650	124	0	10	61	4	15	5	4	14	14	14	19	10	15	14
bref	ADV	1.023	24.876	25.443	123	0	10	59	6	20	1	4	7	23	2	25	10	8	23
brièvement	ADV	1.578	10.227	16.135	78	0	10	49	6	5	9	4	9	19	6	9	4	1	12
brut	A	1.854	13.167	24.409	118	0	10	44	5	16	30	18	1	5	17	14	5	7	5
but	N	1.059	99.792	105.702	511	0	10	86	9	30	17	18	27	45	247	31	15	41	40
cadre	N	6.544	44.001	287.939	1392	0	10	99	6	96	115	119	117	90	87	159	154	192	263
calcul	N	4.767	17.876	85.223	412	0	10	76	7	31	118	54	30	36	28	47	23	18	27
calculer	V	5.021	15.986	80.259	388	0	10	68	6	6	139	39	14	7	88	39	17	21	18
capacité	N	5.105	41.414	211.403	1022	0	10	94	3	80	107	97	62	47	152	133	133	90	121
caractère	N	6.732	33.309	224.228	1084	0	10	100	6	107	64	83	152	141	76	100	115	118	128
caractériser	V	37.086	5.622	208.507	1008	0	10	98	3	58	186	87	43	124	103	98	90	104	115
caractéristique	A	11.625	4.413	51.299	248	0	10	76	3	30	26	23	24	25	22	20	22	25	31
caractéristique	N	32.419	6.151	199.406	964	0	10	95	6	62	146	44	34	84	162	189	63	68	112
cas	N	3.963	157.264	623.247	3013	0	10	100	6	265	480	261	256	536	161	195	345	219	295
catégorie	N	10.215	34.302	350.408	1760	66	10	98	6	175	80	54	75	218	303	221	169	127	338
catégorisation	N	1213.896	0.032	38.888	188	0	10	54	6	20	3	5	5	35	69	11	6	17	17
cause	N	1.544	78.240	120.802	856	272	10	100	6	94	46	60	126	91	54	65	139	36	145
central	A	3.681	49.447	182.030	880	0	10	97	6	76	39	168	113	45	55	94	123	62	105
centre	N	1.103	201.490	222.160	1074	0	10	98	7	83	48	273	147	31	64	69	145	114	100
centrer	V	6.028	14.104	85.016	411	0	10	88	6	25	17	66	28	30	75	62	26	38	44
cependant	ADV	4.210	77.038	324.345	1568	0	10	100	6	129	202	122	265	121	110	153	181	119	166
cerner	V	2.668	8.530	22.754	110	0	10	57	6	11	1	5	18	16	7	20	11	11	10
certain	A	2.066	254.613	526.026	2543	0	10	100	5	282	192	181	313	314	160	331	216	239	315
certes	ADV	1.992	52.859	105.288	509	0	10	96	4	65	13	47	100	37	15	78	60	30	64
champ	N	2.590	77.783	201.474	974	0	10	98	7	93	38	110	108	50	52	82	103	120	218
changement	N	4.115	63.143	259.807	1256	0	10	100	6	65	76	116	108	39	292	87	173	84	216
chapitre	N	1.929	24.123	46.542	225	0	10	57	7	27	7	3	102	43	2	6	20	6	9
chercheur	N	5.709	25.797	147.279	712	0	10	79	7	68	2	21	27	16	53	110	85	271	59
chiffre	N	1.021	67.059	68.468	331	0	10	70	7	24	9	41	41	3	22	84	59	27	21
choisir	V	1.069	158.041	168.999	817	0	10	99	7	62	169	44	80	47	144	70	46	70	85
choix	N	2.488	119.886	298.281	1442	0	10	98	4	85	200	128	144	83	145	181	184	83	209
ci-dessous	ADV	4.954	4.509	22.340	108	0	10	44	8	11	16	6	1	42	7	7	4	8	6
ci-dessus	ADV	18.231	2.178	39.716	192	0	10	59	6	14	40	9	6	61	11	20	2	22	7
cible	N	2.866	37.602	107.770	521	0	10	62	7	4	38	36	11	100	229	57	11	29	6
circonstance	N	1.292	31.531	40.750	197	0	10	69	7	34	4	7	43	42	13	7	18	10	19
citer	V	4.552	42.488	193.407	935	0	10	95	6	88	16	49	228	93	34	49	203	60	115
clairement	ADV	3.486	27.239	94.945	459	0	10	97	4	42	27	26	80	42	42	43	52	47	58
classe	N	3.556	78.536	279.251	1524	174	10	93	7	117	60	45	94	159	95	528	118	72	236
classement	N	1.368	30.843	42.198	204	0	10	60	5	16	5	23	7	22	12	29	23	17	50
classer	V	1.936	36.225	70.123	339	0	10	84	5	48	12	31	16	46	27	48	36	42	33
classification	N	35.597	1.546	55.023	266	0	10	58	7	58	3	13	9	49	18	10	28	50	28
classique	A	4.286	28.376	121.629	588	0	10	95	6	45	29	49	73	44	44	70	70	31	133
clivage	N	10.498	3.468	36.406	176	0	8	45	6	16	0	11	25	6	0	16	61	16	25
code	N	1.197	43.545	52.127	252	0	10	72	5	31	3	12	27	26	17	30	22	52	32
cohérence	N	7.915	6.063	47.990	232	0	10	73	5	22	9	24	9	26	49	25	18	19	31
cohérent	A	5.577	6.639	37.027	179	0	10	72	5	14	14	22	16	16	31	23	10	8	25
coïncider	V	4.882	3.940	19.237	93	0	10	50	6	9	11	7	9	14	14	5	7	3	14
collaboration	N	3.224	11.997	38.681	187	0	10	58	6	23	1	12	25	7	7	44	19	24	25
collecter	V	3.081	7.721	23.788	115	0	9	50	7	24	3	9	17	0	15	2	13	24	8
collectif	A	7.316	31.499	230.434	1232	118	10	97	5	115	101	93	46	50	138	153	150	124	262
collectif	N	4.092	14.761	60.401	292	0	10	55	6	39	5	20	1	3	66	20	18	56	64
collectivement	ADV	8.781	2.002	17.582	85	0	10	48	6	8	12	5	8	6	12	3	10	13	8
colloque	N	4.193	4.934	20.685	100	0	9	46	5	17	3	5	23	10	0	5	20	13	4
combinaison	N	3.210	16.819	53.989	261	0	10	74	5	18	32	26	6	35	50	9	36	20	29
combiner	V	8.560	5.582	47.783	231	0	10	86	3	12	15	24	15	29	22	23	38	20	33
commentaire	N	2.322	25.925	60.194	291	0	10	74	7	46	22	4	19	23	15	16	10	103	33
commun	A	3.943	56.503	222.780	1125	48	10	100	6	110	67	90	117	75	76	112	210	103	165
communauté	N	2.991	71.440	213.679	1033	0	10	91	4	111	14	159	198	20	8	99	182	161	81
communication	N	6.639	43.465	288.559	1395	0	10	96	8	59	26	38	35	149	77	72	147	740	52
comparable	A	6.279	6.687	41.991	203	0	10	81	4	14	18	19	19	25	21	34	25	9	19
comparaison	N	18.061	11.453	206.853	1000	0	10	94	7	28	100	63	48	50	367	160	66	44	74
comparatif	A	46.748	0.801	37.440	181	0	10	64	6	14	32	16	4	6	13	23	52	8	13
comparer	V	4.076	25.677	104.667	506	0	10	94	7	18	93	34	44	42	107	75	42	20	31
compatible	A	5.613	5.086	28.546	138	0	10	56	5	5	27	6	1	40	13	12	5	14	15
compenser	V	2.211	12.910	28.546	138	0	10	64	7	4	45	13	15	8	14	11	10	9	9
compétence	N	9.049	22.081	199.820	966	0	10	90	6	59	21	43	34	9	89	333	127	184	67
complémentaire	A	6.290	8.353	52.541	254	0	10	76	5	13	37	13	54	16	29	25	15	30	22
complet	A	1.942	38.035	73.846	357	0	10	86	9	28	133	28	48	23	23	19	22	12	21
compléter	V	3.490	24.067	83.982	406	0	10	93	6	25	55	32	48	47	66	29	32	46	26
complexe	A	7.215	15.425	111.287	538	0	10	94	7	39	35	43	35	146	53	62	26	44	55
complexité	N	8.826	6.351	56.057	271	0	10	78	7	20	15	46	14	22	71	23	15	28	17
comportement	N	7.483	35.992	269.322	1302	0	10	95	7	67	215	28	55	53	425	118	124	86	131
comporter	V	3.003	34.030	102.185	494	0	10	96	6	42	57	21	37	88	69	53	49	37	41
composante	N	22.072	3.140	69.296	335	0	10	75	7	17	68	20	8	56	60	26	32	23	25
composer	V	2.184	54.069	118.113	571	0	10	99	6	60	37	55	119	50	74	32	46	41	57
composition	N	5.101	13.463	68.675	332	0	10	76	7	24	16	11	137	21	4	23	47	8	41
compréhension	N	12.355	8.137	100.530	486	0	10	85	5	30	10	28	18	59	123	100	21	41	56
compromis	N	3.381	10.828	36.613	177	0	10	58	9	17	4	14	17	5	12	15	67	12	14
concentration	N	3.556	10.356	36.820	178	0	9	50	8	8	8	84	19	0	4	7	24	10	14
concentrer	V	1.275	41.519	52.954	256	0	10	78	6	18	24	61	27	8	9	23	40	21	25
concept	N	11.736	15.898	186.581	902	0	10	90	5	69	37	64	26	115	164	117	40	143	127
conception	N	17.493	12.534	219.264	1060	0	10	97	6	96	44	65	48	136	263	97	92	74	145
conceptuel	A	48.605	1.017	49.438	239	0	10	53	7	12	6	13	7	93	28	16	18	30	16
concerner	V	3.472	69.053	239.742	1159	0	10	99	4	92	67	135	81	173	125	120	105	108	153
concevoir	V	3.390	35.151	119.147	576	0	10	93	5	91	18	41	48	69	42	62	60	55	90
conclure	V	1.488	52.411	77.983	377	0	10	88	7	24	53	12	83	47	31	30	35	26	36
conclusion	N	4.129	28.856	119.147	576	0	10	99	5	27	109	57	66	63	34	56	52	58	54
concret	A	4.283	11.157	47.783	231	0	10	75	5	21	1	17	12	32	15	34	42	29	28
concrètement	ADV	3.836	4.637	17.789	86	0	10	55	5	9	7	12	9	4	5	11	12	10	7
condition	N	6.264	76.614	479.898	2380	60	10	100	8	134	516	161	149	194	534	186	152	120	234
conditionner	V	4.955	5.510	27.305	132	0	10	61	5	13	14	14	6	23	10	9	12	15	16
conduire	V	1.988	153.444	305.108	1475	0	10	100	7	116	284	111	111	83	220	125	147	72	206
conférence	N	1.396	35.111	49.024	237	0	10	67	6	16	1	28	63	9	3	8	71	30	8
conférer	V	7.418	6.135	45.508	220	0	10	76	6	35	7	16	26	29	7	14	29	17	40
configuration	N	27.397	4.085	111.907	541	0	10	82	6	80	25	44	13	151	44	34	62	23	65
confirmer	V	1.433	89.332	128.042	619	0	10	94	8	57	30	40	96	48	130	75	52	49	42
confondre	V	2.431	18.381	44.680	216	0	10	81	7	40	12	17	24	32	11	23	17	17	23
conforme	A	5.511	4.317	23.788	115	0	10	60	5	6	12	7	7	9	22	7	18	12	15
conformer	V	3.631	6.039	21.926	106	0	10	56	5	12	10	7	10	12	8	17	8	6	16
conforter	V	3.502	7.737	27.098	131	0	10	63	5	11	5	16	13	5	11	16	23	11	20
confrontation	N	6.763	8.626	58.332	282	0	10	68	5	43	4	9	23	25	31	53	12	67	15
confronter	V	3.709	21.024	77.983	377	0	10	94	5	38	38	18	39	23	43	36	37	46	59
conjuguer	V	4.710	4.085	19.237	93	0	10	52	5	6	4	20	7	5	1	13	16	8	13
connaissance	N	5.259	58.209	306.142	1480	0	10	96	5	121	83	73	81	163	221	279	97	169	193
consacré	A	3.444	5.046	17.376	84	0	9	51	5	16	4	5	17	10	0	2	14	7	9
consacrer	V	2.329	55.943	130.317	630	0	10	98	5	80	37	36	117	66	18	54	69	63	90
consensus	N	4.330	6.832	29.580	143	0	10	62	5	6	25	19	7	8	11	14	30	13	10
conséquence	N	3.388	40.726	137.971	667	0	10	99	7	62	78	50	62	48	100	55	71	29	112
conserver	V	1.843	52.971	97.634	472	0	10	92	6	49	25	54	118	53	40	36	31	27	39
considérable	A	2.832	12.710	35.992	174	0	10	70	7	15	5	39	45	8	2	17	15	13	15
considérablement	ADV	4.083	6.687	27.305	132	0	10	67	7	14	11	25	24	5	9	11	14	9	10
considération	N	4.215	8.441	35.579	245	73	10	86	5	33	22	25	22	28	14	19	22	18	42
considérer	V	5.214	98.390	512.994	2480	0	10	100	4	224	380	213	176	310	261	210	191	208	307
consister	V	6.070	28.592	173.549	839	0	10	98	4	99	105	47	33	94	112	64	74	110	101
constamment	ADV	1.598	9.707	15.514	75	0	9	41	5	13	0	2	7	3	2	9	16	8	15
constant	A	5.586	13.663	76.329	369	0	10	85	7	22	153	31	31	33	16	28	20	17	18
constat	N	5.997	11.349	68.054	329	0	10	90	7	30	13	23	20	20	18	69	29	51	56
constater	V	1.806	69.646	125.766	608	0	10	99	6	50	38	39	72	80	77	77	57	56	62
constitué	A	9.412	1.890	17.789	86	0	10	53	4	8	2	8	10	11	9	8	12	11	7
constituer	V	7.326	70.359	515.477	2492	0	10	100	4	249	133	297	229	231	209	249	302	289	304
constitutif	A	32.730	0.929	30.407	147	0	10	58	4	17	3	12	4	29	10	15	20	16	21
constitution	N	3.350	24.515	82.120	397	0	10	89	6	30	3	51	59	33	17	31	76	36	61
construction	N	6.769	47.886	324.138	1567	0	10	99	5	94	40	229	136	311	94	139	231	152	141
construire	V	3.494	78.320	273.666	1323	0	10	98	6	104	52	99	104	220	119	180	131	170	144
consulter	V	1.113	32.340	35.992	174	0	10	70	8	16	6	14	27	12	7	10	24	43	15
contemporain	A	5.546	18.461	102.392	495	0	10	87	6	100	8	34	82	34	3	27	61	22	124
contenir	V	1.499	56.175	84.189	407	0	10	92	6	37	38	22	55	97	48	29	26	35	20
contenu	N	7.302	23.314	170.240	823	0	10	91	6	31	12	19	39	107	83	146	46	279	61
contester	V	1.226	20.919	25.650	124	0	10	59	5	15	4	4	21	10	1	12	31	6	20
contexte	N	19.104	23.506	449.077	2171	0	10	100	6	134	82	173	152	533	322	191	143	178	263
continuité	N	9.860	6.063	59.780	289	0	10	82	5	41	24	31	50	25	12	20	22	28	36
contour	N	2.962	6.495	19.237	93	0	10	51	6	8	1	8	9	8	3	8	18	10	20
contradiction	N	5.340	7.360	39.302	190	0	10	73	4	36	7	18	18	22	6	20	15	19	29
contradictoire	A	6.333	6.271	39.716	192	0	10	77	4	31	9	17	14	26	18	22	23	12	20
contraindre	V	2.528	23.971	60.608	293	0	10	83	6	17	73	20	23	26	34	22	36	12	30
contrainte	N	26.369	10.692	281.940	1363	0	10	96	6	29	292	55	48	168	412	122	81	74	82
contraire	A	1.907	10.956	20.892	101	0	10	57	6	14	14	8	15	5	12	10	7	5	11
contraste	N	6.382	4.829	30.821	149	0	9	59	5	14	0	21	15	28	13	17	10	9	22
contraster	V	6.634	3.212	21.306	103	0	10	65	5	10	9	15	11	8	3	11	14	6	16
contredire	V	1.720	6.736	11.584	56	0	10	40	5	9	4	2	5	3	6	11	2	5	9
contribuer	V	6.656	25.453	169.412	819	0	10	98	5	90	28	76	102	34	55	69	161	81	123
contribution	N	6.276	13.711	86.051	416	0	10	91	6	20	52	16	33	29	38	32	80	79	37
contrôler	V	1.500	70.479	105.702	511	0	10	91	6	28	22	49	58	15	153	59	73	16	38
convenir	V	2.264	45.691	103.426	500	0	10	98	6	73	40	36	50	41	30	54	62	41	73
convention	N	2.149	23.106	49.645	240	0	10	67	7	16	49	36	25	19	3	11	16	16	49
convergence	N	11.254	2.867	32.269	156	0	10	56	6	4	15	14	14	5	10	11	24	44	15
converger	V	4.889	3.596	17.582	85	0	10	48	7	3	29	5	7	5	10	7	5	8	6
corpus	N	134.820	0.801	107.977	522	0	9	70	8	25	0	28	36	266	12	11	15	103	26
correct	A	1.598	16.178	25.857	125	0	9	44	8	8	9	0	4	9	38	44	6	3	4
corrélation	N	87.698	1.073	94.118	455	0	10	52	7	2	110	18	6	13	153	73	31	11	38
corréler	V	104.285	0.424	44.266	214	0	10	54	7	2	58	5	2	14	58	31	14	7	23
correspondance	N	6.334	9.274	58.746	284	0	10	71	8	27	7	9	98	25	49	19	14	6	30
correspondant	A	12.260	3.324	40.750	197	0	10	64	7	10	55	9	8	44	32	15	5	8	11
correspondre	V	9.200	33.029	303.866	1469	0	10	99	7	67	295	117	74	349	207	78	73	83	126
corriger	V	1.591	14.953	23.788	115	0	10	46	6	6	26	3	14	12	20	18	6	6	4
couple	N	1.419	60.364	85.637	414	0	10	68	7	135	76	16	41	51	4	22	12	17	40
couramment	ADV	5.134	2.619	13.445	65	0	10	41	6	6	9	4	14	5	4	4	10	6	3
courant	A	3.157	15.529	49.024	237	0	10	84	7	20	52	26	23	27	14	11	25	15	24
court	A	1.175	56.495	66.400	321	0	10	70	7	17	83	53	39	7	56	15	7	20	24
création	N	2.431	64.753	157.415	761	0	10	93	5	79	46	121	114	22	12	29	113	82	143
critère	N	11.731	14.688	172.308	833	0	10	92	3	43	90	57	35	90	122	91	101	75	129
critique	A	6.548	11.877	77.777	376	0	10	83	5	22	36	9	48	15	48	39	41	52	66
critique	N	4.343	28.816	125.146	605	0	10	84	4	68	17	19	86	84	9	81	71	53	117
critiquer	V	2.281	22.858	52.127	252	0	10	81	5	33	22	12	34	22	8	25	22	29	45
croissance	N	3.070	42.920	131.765	637	0	10	69	8	9	266	184	78	8	1	22	23	10	36
croissant	A	10.264	8.626	88.533	428	0	10	80	7	15	142	60	40	3	14	31	61	21	41
crucial	A	3.091	9.571	29.580	143	0	10	72	3	16	16	12	9	19	9	15	17	11	19
cycle	N	3.993	17.716	70.744	342	0	10	72	5	18	44	44	18	12	59	67	46	13	21
d'abord	ADV	1.448	129.017	186.788	903	0	10	100	5	136	49	58	125	90	36	94	130	64	121
d'ailleurs	ADV	1.746	108.185	188.856	913	0	10	97	5	118	24	69	185	142	45	50	104	88	88
d'emblée	ADV	4.348	7.136	31.028	150	0	10	66	5	26	5	15	13	18	8	13	11	11	30
date	N	2.017	45.018	90.808	439	0	10	72	9	28	252	20	69	4	3	11	17	10	25
davantage	ADV	2.651	64.368	170.653	825	0	10	96	7	67	49	67	114	37	127	106	92	81	85
débat	N	2.768	69.270	191.752	927	0	10	89	4	69	35	99	125	116	16	98	137	123	109
débattre	V	1.069	22.649	24.202	117	0	10	52	8	11	4	9	10	38	9	5	10	12	9
déboucher	V	1.797	14.961	26.891	130	0	10	65	6	9	4	17	21	11	9	6	23	10	20
décisif	A	2.964	12.494	37.027	179	0	10	74	5	24	12	10	36	17	7	10	25	12	26
décision	N	1.663	125.997	209.542	1013	0	10	94	5	38	176	88	132	14	185	67	154	31	128
déclin	N	11.631	4.998	58.126	281	0	10	54	8	6	7	168	31	3	6	6	17	3	34
décliner	V	2.091	11.773	24.615	119	0	10	60	7	12	9	16	14	6	3	10	13	12	24
découler	V	8.938	3.980	35.579	172	0	10	86	5	14	14	11	17	24	19	16	14	16	27
découverte	N	1.582	36.096	57.091	276	0	10	75	6	21	4	19	40	20	2	31	68	25	46
décrire	V	5.119	44.650	228.572	1105	0	10	100	4	114	103	52	128	171	157	111	58	102	109
déduire	V	4.359	8.305	36.199	175	0	10	58	8	12	84	11	10	16	7	9	7	4	15
défaut	N	1.694	22.097	37.440	181	0	10	71	6	24	6	11	40	21	14	11	13	12	29
défavorable	A	3.520	4.173	14.687	71	0	10	41	6	1	20	6	8	2	11	4	8	2	9
définir	V	13.655	24.692	337.170	1630	0	10	99	6	135	240	127	103	318	131	157	123	143	153
définitif	A	1.294	16.306	21.099	102	0	10	55	4	19	10	11	18	5	10	4	14	5	6
définition	N	19.156	10.852	207.887	1005	0	10	97	4	102	109	61	66	146	54	87	126	113	141
définitivement	ADV	1.193	17.516	20.892	101	0	10	55	5	16	9	7	17	10	5	5	14	7	11
dégager	V	1.090	60.724	66.193	320	0	10	86	5	37	42	22	33	47	18	40	23	27	31
degré	N	5.687	26.662	151.623	733	0	10	96	6	43	149	49	53	75	97	91	52	56	68
délimiter	V	7.742	3.500	27.098	131	0	10	59	7	9	3	25	7	35	6	9	12	8	17
démarche	N	4.645	28.544	132.592	641	0	10	95	5	54	49	63	42	51	89	68	62	91	72
démarquer	V	5.395	3.067	16.548	80	0	9	45	5	8	4	10	8	12	0	7	8	14	9
demeurer	V	1.866	58.434	109.011	527	0	10	94	6	84	32	79	96	41	15	37	50	32	61
démonstration	N	1.761	19.149	33.717	163	0	10	60	8	17	64	4	21	10	4	9	10	6	18
démontrer	V	2.991	21.784	65.159	315	0	10	86	6	25	44	25	50	21	38	23	43	27	19
dépasser	V	1.206	64.488	77.777	376	0	10	95	6	45	23	58	43	25	24	46	38	40	34
dépendance	N	8.278	6.671	55.230	267	0	10	67	8	12	23	44	24	88	15	8	28	3	22
dépendant	A	8.052	4.701	37.854	183	0	10	71	6	14	16	19	6	12	48	13	17	6	32
dépendre	V	3.827	40.317	154.312	746	0	10	98	6	32	249	70	49	82	73	47	39	41	64
déplacement	N	2.536	31.980	81.086	392	0	10	79	7	31	8	145	27	43	27	26	22	16	47
descriptif	A	81.974	0.368	30.200	146	0	10	48	4	16	14	5	2	34	26	23	3	16	7
description	N	12.872	9.835	126.594	612	0	10	90	6	86	17	15	97	182	58	61	23	40	33
désigner	V	3.080	56.007	172.515	834	0	10	98	7	113	54	44	105	170	40	56	93	54	105
désormais	ADV	1.125	113.583	127.835	618	0	10	92	4	71	20	86	135	24	9	81	79	54	59
dessiner	V	1.405	34.903	49.024	237	0	10	77	5	28	2	19	33	9	18	26	39	23	40
détaillé	A	7.153	3.268	23.374	113	0	10	61	4	9	11	5	20	15	15	10	9	10	9
détailler	V	2.156	12.470	26.891	130	0	10	62	4	5	18	11	23	12	16	8	13	13	11
déterminant	A	8.543	4.141	35.372	171	0	10	74	6	20	11	22	17	10	13	10	29	8	31
détermination	N	3.805	11.797	44.887	217	0	10	66	7	19	72	6	13	42	9	5	13	4	34
déterminé	A	4.143	5.542	22.961	111	0	10	57	6	8	18	5	8	14	4	11	12	8	23
déterminer	V	5.323	34.351	182.858	884	0	10	95	7	51	251	51	55	145	124	49	41	43	74
deuxièmement	ADV	2.627	7.480	19.651	95	0	10	51	4	12	15	4	8	13	12	1	13	8	9
développement	N	5.604	66.555	372.955	1864	61	10	99	6	68	122	467	130	64	235	183	307	122	166
développer	V	5.207	55.182	287.318	1389	0	10	100	5	96	90	196	102	78	161	164	186	169	147
devenir	V	1.143	366.515	419.083	2026	0	10	100	4	250	113	241	329	111	88	142	282	175	295
différemment	ADV	3.817	6.503	24.822	120	0	10	60	5	21	7	9	9	19	16	13	15	5	6
différence	N	5.643	57.665	325.379	1573	0	10	98	6	138	199	83	117	202	288	231	98	65	152
différenciation	N	143.989	0.320	46.128	223	0	10	65	6	19	29	31	9	10	16	44	18	8	39
différencié	A	66.144	0.328	21.720	105	0	10	51	5	5	15	8	2	2	9	16	14	18	16
différencier	V	18.097	3.452	62.469	302	0	10	80	3	14	41	34	10	36	36	42	21	28	40
différent	A	4.696	118.749	557.675	2696	0	10	100	4	274	300	236	212	292	375	273	210	256	268
différer	V	7.460	6.239	46.542	225	0	10	81	7	18	36	15	16	16	58	28	8	11	19
difficile	A	1.167	143.777	167.757	811	0	10	100	5	83	47	90	109	89	56	106	71	83	77
difficilement	ADV	4.102	9.531	39.095	189	0	10	77	6	21	13	24	20	38	14	15	13	20	11
difficulté	N	3.217	62.895	202.302	978	0	10	99	6	98	71	78	77	69	151	163	72	82	117
diffuser	V	2.074	31.315	64.952	314	0	10	77	5	35	6	20	56	5	16	15	54	67	40
diffusion	N	7.844	12.158	95.359	461	0	10	76	6	25	17	66	73	7	9	15	59	89	101
dimension	N	14.505	20.735	300.764	1454	0	10	98	5	128	110	229	54	183	169	158	102	161	160
diminuer	V	3.208	21.600	69.296	335	0	10	68	7	10	147	43	19	6	54	21	7	7	21
diminution	N	7.390	5.542	40.957	198	0	10	55	7	3	60	32	12	1	44	13	14	9	10
direct	A	3.669	33.710	123.698	598	0	10	95	5	37	56	46	66	119	55	44	87	50	38
directement	ADV	3.327	40.790	135.695	656	0	10	100	5	56	67	58	68	86	43	49	96	54	79
direction	N	1.107	114.681	127.007	614	0	10	92	6	26	23	31	131	24	76	41	144	70	48
disciplinaire	A	12.586	2.843	35.785	173	0	9	49	6	22	0	6	4	4	4	53	33	30	17
discipline	N	6.753	19.574	132.179	639	0	10	70	7	166	3	25	19	23	7	196	61	51	88
discours	N	6.487	56.631	367.370	1776	0	10	91	6	186	4	192	254	396	34	119	166	328	97
discussion	N	2.937	38.731	113.769	550	0	10	98	6	56	32	33	52	60	54	42	68	110	43
discuter	V	1.009	65.017	65.572	317	0	10	87	3	34	33	18	24	41	37	32	31	29	38
disperser	V	1.056	13.519	14.273	69	0	10	43	4	2	6	3	16	6	4	6	8	8	10
disponible	A	3.636	23.266	84.603	409	0	10	85	5	16	63	41	25	18	64	53	37	53	39
disposer	V	2.006	75.068	150.589	728	0	10	99	5	42	102	62	100	36	74	54	118	55	85
dispositif	N	9.683	29.609	286.698	1386	0	10	84	7	68	39	50	32	26	262	52	289	433	135
dissocier	V	10.208	1.682	17.169	83	0	10	47	7	8	3	5	3	23	7	8	5	5	16
distance	N	2.421	50.577	122.457	592	0	10	93	4	61	43	62	29	36	94	104	32	58	73
distinct	A	12.121	5.086	61.642	298	0	10	87	6	27	17	19	17	60	33	24	28	25	48
distinction	N	15.855	7.032	111.494	539	0	10	93	4	92	27	26	39	102	48	55	40	47	63
distinguer	V	5.205	38.507	200.440	969	0	10	98	4	93	90	42	84	169	97	114	70	90	120
distribuer	V	1.819	23.771	43.232	209	0	10	71	6	20	35	6	28	9	25	16	27	27	16
distribution	N	5.863	21.240	124.525	602	0	10	86	9	22	290	25	27	39	33	31	50	36	49
divergence	N	4.095	4.445	18.203	88	0	10	46	5	4	5	8	15	7	18	8	12	2	9
divergent	A	9.597	1.466	14.066	68	0	10	47	6	9	3	9	9	5	3	10	6	5	9
divers	A	4.265	32.540	138.798	671	0	10	98	6	71	31	43	93	55	38	56	89	88	107
diversité	N	9.270	13.767	127.628	617	0	10	89	5	50	26	72	34	50	44	73	98	59	111
diviser	V	1.437	25.621	36.820	178	0	10	75	6	22	12	20	28	6	22	10	13	12	33
division	N	1.648	30.754	50.679	294	49	10	67	5	61	3	39	65	20	6	14	37	7	42
document	N	3.226	48.727	157.208	760	0	10	83	6	59	6	29	164	8	98	69	79	229	19
documentation	N	9.721	3.660	35.579	172	0	9	46	8	12	0	3	20	1	3	7	20	89	17
domaine	N	5.093	44.922	228.779	1106	0	10	97	5	92	46	96	135	184	79	101	124	111	138
dominant	A	12.241	5.999	73.433	355	0	10	82	4	48	34	38	26	6	18	26	51	34	74
donc	ADV	2.084	525.942	1096.112	5299	0	10	100	5	498	904	453	572	560	437	499	411	444	521
donné	A	5.569	18.869	105.081	508	0	10	90	6	18	105	30	28	69	89	35	39	51	44
donnée	N	9.564	31.403	300.350	1452	0	10	98	6	59	196	100	93	92	270	189	142	206	105
doter	V	2.865	22.890	65.572	317	0	10	83	5	33	19	29	39	11	7	39	47	26	67
durée	N	6.096	31.387	191.339	925	0	10	86	7	29	227	52	36	35	298	40	35	42	131
dynamique	A	8.609	6.944	59.780	289	0	10	72	6	12	84	38	12	36	42	14	14	7	30
dynamique	N	16.154	9.066	146.452	708	0	10	83	6	28	167	148	25	26	33	27	117	39	98
écart	N	3.448	31.796	109.632	596	66	10	87	6	32	124	46	37	27	66	140	39	17	68
échantillon	N	6.685	13.615	91.015	440	0	10	64	6	8	103	14	11	3	119	52	33	66	31
échec	N	1.828	42.768	78.190	378	0	10	83	5	28	8	16	66	8	67	67	63	10	45
échelle	N	10.666	25.581	272.839	1319	0	10	91	7	47	55	479	89	23	277	73	103	21	152
éclairer	V	1.250	34.094	42.612	206	0	10	80	6	35	9	12	39	15	4	21	22	27	22
effectif	A	10.323	4.990	51.506	249	0	10	81	5	21	44	22	21	25	12	39	16	22	27
effectif	N	1.739	24.620	42.818	207	0	10	58	7	7	13	40	45	5	10	40	17	11	19
effectivement	ADV	2.509	27.871	69.916	338	0	10	92	4	28	51	19	25	31	32	44	40	36	32
effectuer	V	3.071	63.047	193.614	936	0	10	100	7	75	117	77	62	73	184	78	60	117	93
effet	N	5.888	98.502	580.015	2854	50	10	100	7	77	582	191	164	159	645	431	278	84	243
efforcer	V	1.047	30.226	31.648	153	0	10	58	6	18	3	7	24	11	2	31	27	14	16
égal	A	4.020	19.141	76.949	372	0	10	69	8	11	239	11	7	7	32	36	11	6	12
également	ADV	3.111	187.578	583.531	2821	0	10	100	7	226	233	224	389	250	364	243	307	280	305
égalité	N	3.705	15.521	57.505	278	0	10	59	5	30	66	5	13	3	2	69	35	3	52
élaboration	N	14.660	4.797	70.330	340	0	10	82	6	26	8	36	29	22	88	27	44	29	31
élaboré	A	6.757	1.898	12.825	62	0	10	43	6	9	3	4	6	6	9	14	3	4	4
élaborer	V	6.996	11.709	81.914	396	0	10	89	5	30	11	34	21	38	95	53	52	32	30
élargir	V	2.914	15.690	45.714	221	0	10	75	6	20	9	23	33	11	18	17	32	28	30
élément	N	6.443	54.613	351.856	1701	0	10	100	6	141	60	154	134	389	206	134	160	168	155
élevé	A	6.042	16.466	99.496	481	0	10	76	5	25	107	50	11	7	118	68	18	15	62
élever	V	1.672	82.989	138.798	671	0	10	96	6	43	163	60	67	20	106	77	42	18	75
emblématique	A	2.899	6.279	18.203	88	0	8	47	5	16	0	16	10	8	0	6	14	13	5
émergence	N	20.886	4.061	84.810	410	0	10	91	6	41	18	47	46	29	17	20	84	45	63
émerger	V	3.051	15.457	47.162	228	0	10	75	6	23	8	43	17	9	7	14	33	38	36
émettre	V	1.129	36.473	41.164	199	0	10	69	6	9	56	10	19	19	32	12	11	17	14
empirique	A	170.312	0.553	94.118	455	0	10	81	6	28	113	18	3	54	39	56	40	35	69
employer	V	2.130	47.886	101.978	493	0	10	99	6	59	39	30	88	71	47	23	54	33	49
emprunter	V	1.282	31.956	40.957	198	0	10	79	4	26	10	17	34	21	14	16	24	13	23
engendrer	V	6.521	9.707	63.297	306	0	10	79	5	28	48	51	17	11	42	25	14	29	41
englober	V	6.770	2.811	19.030	92	0	10	53	5	7	4	20	5	14	5	8	11	9	9
enjeu	N	6.984	29.321	204.784	990	0	10	94	5	85	10	183	76	26	32	88	218	153	119
énoncer	V	8.804	4.605	40.543	196	0	10	70	6	17	17	8	23	39	14	25	18	23	12
enquête	N	2.797	110.580	309.245	1495	0	10	93	5	243	122	89	102	27	32	159	287	129	305
enrichir	V	2.606	11.589	30.200	146	0	10	69	8	14	3	10	20	16	12	12	11	37	11
ensemble	N	5.802	80.787	468.728	2440	174	10	100	4	209	274	320	188	204	255	218	257	224	291
ensuite	ADV	1.159	162.646	188.443	911	0	10	100	6	83	75	62	102	69	111	104	125	72	108
entièrement	ADV	1.144	32.540	37.233	180	0	10	78	5	26	12	19	31	23	10	10	21	11	17
entité	N	10.349	6.736	69.709	337	0	10	65	7	22	3	45	3	175	11	10	8	10	50
entraîner	V	1.177	81.932	96.393	466	0	10	93	5	51	60	44	72	48	56	31	36	20	48
entretenir	V	2.551	31.219	79.638	385	0	10	88	5	50	5	35	66	32	19	32	43	38	65
entretien	N	4.459	43.889	195.683	946	0	10	82	5	113	1	95	36	22	67	70	233	185	124
environ	ADV	0.993	82.677	82.120	397	0	10	88	4	17	41	79	71	6	40	47	30	18	48
environnement	N	3.385	50.849	172.101	832	0	10	89	5	43	134	135	18	40	139	45	141	73	64
envisageable	A	4.709	2.811	13.239	64	0	10	42	5	3	13	5	3	12	8	3	8	6	3
envisager	V	2.845	49.512	140.867	681	0	10	100	6	36	72	54	69	85	101	57	65	74	68
épistémologique	A	160.346	0.192	30.821	149	0	10	48	6	36	1	7	1	12	1	36	6	24	25
épreuve	N	1.248	61.141	76.329	369	0	10	59	7	35	2	3	15	46	132	89	13	17	17
équilibre	N	8.058	26.774	215.747	1043	0	10	71	9	19	836	48	30	5	13	22	25	16	29
équivalent	A	9.396	4.205	39.509	191	0	10	59	5	10	65	16	5	10	32	23	1	7	22
équivalent	N	2.849	8.858	25.236	122	0	10	57	7	36	16	9	13	13	10	10	6	5	4
équivaloir	V	3.024	5.815	17.582	85	0	10	45	7	6	23	5	10	18	1	3	11	4	4
erreur	N	1.701	91.206	155.139	750	0	10	75	6	36	135	4	34	68	335	71	33	19	15
espace	N	5.356	94.626	506.789	2678	228	10	99	7	197	28	863	186	176	158	181	298	253	338
esquisser	V	1.943	9.050	17.582	85	0	10	54	5	11	1	4	21	10	2	4	10	5	17
essai	N	1.505	42.480	63.917	309	0	10	74	8	22	1	10	70	22	127	11	15	9	22
essentiel	A	5.297	21.400	113.355	548	0	10	99	7	60	39	41	74	91	44	34	51	44	70
essentiel	N	1.937	30.226	58.539	283	0	10	85	4	20	8	28	48	26	11	26	29	29	58
essentiellement	ADV	6.713	14.945	100.323	485	0	10	93	5	39	37	81	44	44	31	43	47	47	72
estimation	N	12.098	9.130	110.459	534	0	10	49	9	9	331	38	18	1	43	21	38	1	34
estimer	V	1.061	119.718	127.007	614	0	10	93	7	40	178	47	63	11	67	46	58	34	70
établi	A	5.246	4.101	21.513	104	0	10	62	6	16	4	10	12	9	2	13	22	6	10
établir	V	4.001	51.746	207.059	1001	0	10	100	4	104	65	90	133	103	92	106	124	76	108
étape	N	2.342	49.632	116.251	562	0	10	92	6	31	82	40	57	53	118	58	40	38	45
état	N	1.916	352.659	675.580	3305	39	10	100	5	222	436	353	585	161	238	208	548	95	459
etc.	ADV	11.919	15.914	189.684	917	0	10	94	4	101	11	77	62	128	79	102	83	156	118
étendre	V	1.600	43.176	69.089	334	0	10	91	4	32	33	43	56	35	17	17	43	18	40
étroit	A	1.510	26.718	40.336	195	0	10	69	6	19	2	30	43	19	6	25	22	12	17
étroitement	ADV	7.179	5.158	37.027	179	0	10	68	5	16	5	23	31	22	4	10	30	6	32
étude	N	7.950	88.515	703.712	3402	0	10	100	7	204	271	294	378	241	727	398	301	255	333
étudier	V	3.350	60.324	202.095	977	0	10	99	6	81	184	67	83	67	158	106	48	92	91
évaluation	N	18.527	13.063	242.018	1170	0	10	88	7	32	55	49	33	46	251	350	59	236	59
évaluer	V	6.615	20.607	136.316	659	0	10	92	7	23	83	45	29	36	208	109	30	48	48
événement	N	2.639	68.108	179.755	869	0	10	91	4	69	23	79	141	123	76	17	51	177	113
éventuel	A	2.221	25.525	56.678	274	0	10	91	7	24	51	14	27	18	19	33	31	32	25
éventuellement	ADV	6.633	6.175	40.957	198	0	10	77	5	12	33	12	12	30	11	21	18	24	25
évidemment	ADV	1.292	58.257	75.294	364	0	10	90	6	49	30	25	58	40	12	48	36	34	32
évident	A	1.381	29.962	41.371	200	0	10	83	6	26	17	21	38	32	7	13	12	16	18
évoluer	V	1.993	34.775	69.296	335	0	10	88	5	33	28	44	28	6	34	32	54	46	30
évolution	N	8.523	33.734	287.525	1390	0	10	99	5	87	123	229	175	43	88	138	245	116	146
évoquer	V	2.340	83.726	195.889	947	0	10	99	6	118	26	60	205	84	78	76	80	117	103
examen	N	1.032	58.954	60.815	294	0	10	83	6	23	11	21	42	33	32	57	26	13	36
examiner	V	1.463	62.774	91.843	444	0	10	93	6	20	37	28	45	69	68	56	32	53	36
exception	N	2.405	19.782	47.576	230	0	10	81	5	35	6	20	52	25	6	15	24	17	30
exclure	V	3.134	23.763	74.467	360	0	10	94	5	43	37	33	44	56	26	30	30	17	44
exclusif	A	5.735	5.518	31.648	153	0	10	63	7	10	6	12	23	15	4	8	11	29	35
exclusivement	ADV	5.538	8.217	45.508	220	0	10	85	5	38	12	21	37	26	17	8	18	22	21
exemplaire	A	2.127	6.808	14.480	70	0	9	44	6	12	0	1	10	6	2	5	13	7	14
exemple	N	8.758	37.931	332.205	1606	0	10	100	9	122	55	106	210	623	78	94	111	95	112
exercer	V	3.675	32.028	117.699	569	0	10	98	7	57	48	28	85	24	33	60	78	43	113
exhaustif	A	9.785	1.818	17.789	86	0	10	53	5	12	4	6	14	10	5	6	12	10	7
exigence	N	4.302	16.154	69.502	336	0	10	85	7	33	16	25	31	23	44	60	30	40	34
exiger	V	1.047	48.422	50.679	245	0	10	81	5	27	11	10	42	35	18	25	24	30	23
existant	A	5.763	6.928	39.923	193	0	10	74	5	18	19	28	14	14	8	10	24	34	24
existence	N	3.160	60.548	191.339	925	0	10	100	5	95	164	27	75	109	62	79	68	87	159
exister	V	2.309	132.773	306.556	1482	0	10	100	6	178	301	115	129	136	119	138	120	106	140
expansion	N	6.360	5.334	33.924	164	0	10	58	6	9	13	32	29	13	1	13	9	14	31
expérience	N	4.449	80.114	356.407	1723	0	10	99	6	210	26	71	120	100	559	189	113	134	201
expérimental	A	15.625	6.752	105.495	510	0	10	58	7	7	4	5	11	17	264	109	14	19	60
expérimentation	N	8.659	5.518	47.783	231	0	10	55	6	11	2	5	15	17	59	22	23	40	37
expert	N	3.016	32.853	99.082	479	0	10	75	5	18	109	47	53	10	19	29	85	53	56
expertise	N	5.802	9.162	53.161	257	0	10	59	5	6	5	10	45	3	25	17	62	34	50
explicatif	A	50.903	0.825	41.991	203	0	10	59	6	9	64	20	5	9	13	30	13	7	33
explication	N	2.600	40.493	105.288	509	0	10	90	6	32	40	31	48	62	52	44	36	20	144
explicite	A	20.589	2.251	46.335	224	0	10	72	8	18	14	4	10	59	19	43	16	18	23
explicitement	ADV	32.924	1.778	58.539	283	0	10	82	5	26	41	15	26	40	25	31	28	24	27
expliciter	V	35.910	1.498	53.782	260	0	10	80	5	20	24	9	11	53	23	31	16	45	28
expliquer	V	1.038	315.786	327.654	1584	0	10	100	5	121	128	127	218	143	193	156	191	85	222
exploiter	V	3.046	14.056	42.818	207	0	10	69	6	18	30	33	27	36	10	5	9	35	4
explorer	V	2.210	17.780	39.302	190	0	10	68	7	16	7	6	19	8	36	31	19	34	14
exposer	V	1.326	49.151	65.159	315	0	10	93	8	62	26	16	56	20	27	27	30	23	28
expression	N	4.622	60.059	277.596	1342	0	10	98	5	146	126	58	127	294	188	72	79	118	134
exprimer	V	3.119	70.039	218.436	1056	0	10	100	7	104	84	58	129	181	139	76	94	98	93
extension	N	5.697	9.659	55.023	266	0	10	73	5	14	28	68	13	36	9	3	54	8	33
extérieur	A	2.653	29.009	76.949	372	0	10	89	7	42	62	29	43	65	18	21	29	22	41
extérieur	N	1.640	16.523	27.098	131	0	10	59	6	8	7	17	16	35	7	5	8	11	17
externe	A	14.250	4.645	66.193	320	0	10	69	6	7	38	10	11	75	91	35	17	21	15
extrait	N	4.390	7.256	31.855	154	0	10	56	6	11	2	3	13	25	40	10	18	19	13
extrême	A	1.707	29.681	50.679	245	0	10	87	6	24	16	22	39	34	9	19	36	13	33
extrêmement	ADV	1.390	25.605	35.579	172	0	10	74	3	25	15	16	17	18	8	16	21	12	24
facilement	ADV	1.626	30.915	50.265	243	0	10	86	3	25	25	23	23	27	27	25	20	30	18
faciliter	V	3.573	19.798	70.744	342	0	10	91	6	24	18	35	31	24	55	25	47	52	31
façon	N	2.508	157.120	394.054	1905	0	10	100	4	234	179	96	169	292	223	200	141	144	227
facteur	N	18.916	17.299	327.241	1582	0	10	98	8	32	249	118	65	63	709	104	88	51	103
faculté	N	3.902	11.821	46.128	223	0	9	52	6	14	0	5	78	22	7	20	24	7	46
faible	A	4.467	48.254	215.540	1042	0	10	93	6	22	251	107	32	30	199	188	75	35	103
faiblement	ADV	3.353	5.182	17.376	84	0	10	40	4	2	9	10	1	6	9	8	10	6	23
faiblesse	N	1.109	25.549	28.339	137	0	10	66	5	8	10	23	18	4	13	13	18	7	23
fait	N	2.118	297.662	630.487	3048	0	10	100	5	352	246	196	331	462	173	314	329	257	388
familier	A	1.516	17.604	26.684	129	0	9	53	5	14	0	7	11	13	37	16	8	8	15
favorable	A	3.230	27.919	90.188	436	0	10	87	4	17	64	44	59	4	40	45	69	19	75
favoriser	V	6.771	24.716	167.344	809	0	10	97	6	46	41	105	88	28	65	165	90	73	108
fiable	A	1.943	7.240	14.066	68	0	10	42	5	2	1	8	14	14	6	6	5	5	7
figure	N	6.267	43.104	270.149	1306	0	10	96	5	149	87	53	108	132	216	275	93	117	76
figurer	V	1.928	44.210	85.223	412	0	10	94	6	56	22	20	97	60	27	30	47	19	34
fin	A	1.151	54.085	62.263	301	0	10	90	5	14	11	47	58	16	17	34	44	33	27
final	A	1.333	34.751	46.335	224	0	10	80	7	13	29	10	35	16	44	26	12	16	23
finalement	ADV	1.271	81.371	103.426	500	0	10	95	5	48	49	35	73	18	48	28	67	70	64
finalité	N	18.660	1.818	33.924	164	0	9	49	5	11	0	16	12	19	7	30	18	23	28
fixe	A	2.551	13.055	33.303	161	0	10	57	8	30	67	9	9	8	13	5	4	12	4
flou	A	1.772	7.472	13.239	64	0	9	40	5	7	0	4	4	5	10	6	7	7	14
flux	N	9.542	7.913	75.501	365	0	10	59	6	3	103	107	20	6	16	13	6	46	45
focaliser	V	6.944	5.094	35.372	171	0	10	61	6	11	9	19	2	18	45	13	16	19	19
fonction	N	8.743	46.020	402.328	1945	0	10	98	7	129	688	189	150	246	123	93	110	110	107
fonctionnel	A	20.953	2.843	59.574	288	0	10	65	6	9	21	53	4	81	38	33	13	20	16
fonctionnement	N	5.800	20.471	118.733	574	0	10	91	4	45	23	59	41	87	78	60	84	54	43
fonctionner	V	1.404	52.026	73.019	353	0	10	84	5	39	4	36	35	64	18	26	40	48	43
fondamental	A	5.953	15.810	94.118	455	0	10	95	4	47	45	50	43	53	31	49	29	30	78
fondamentalement	ADV	12.282	2.291	28.132	136	0	10	63	6	11	10	23	12	24	4	13	12	15	12
fondateur	A	4.495	6.167	27.718	134	0	9	58	6	42	6	5	20	7	0	13	19	12	10
fondateur	N	1.419	14.288	20.272	98	0	9	50	6	32	2	4	22	5	0	4	14	4	11
fondement	N	9.694	6.039	58.539	283	0	10	79	5	36	21	33	31	18	15	27	45	14	43
fonder	V	6.494	26.309	170.860	826	0	10	99	6	127	61	65	113	60	30	82	92	74	122
forcément	ADV	1.006	37.426	37.647	182	0	10	78	6	27	20	15	21	14	10	10	14	22	29
formaliser	V	12.436	1.730	21.513	104	0	10	45	6	4	8	6	1	8	8	15	22	17	15
forme	N	6.948	100.897	701.023	3468	79	10	100	5	365	263	212	203	726	206	262	395	393	443
formel	A	11.307	7.208	81.500	394	0	10	81	4	27	49	11	20	72	47	44	60	42	22
formellement	ADV	4.539	3.964	17.996	87	0	10	46	7	2	18	6	6	15	7	6	16	6	5
former	V	1.930	78.768	152.037	735	0	10	97	4	82	45	74	114	80	44	53	95	61	87
formulation	N	27.234	1.618	44.060	213	0	10	62	6	16	21	7	3	66	17	5	34	15	29
formule	N	2.382	25.621	61.022	295	0	10	78	5	50	23	10	43	43	6	25	34	25	36
formuler	V	4.505	13.775	62.056	300	0	10	86	5	22	27	20	21	52	39	30	49	18	22
fort	A	1.743	161.998	282.354	1365	0	10	100	5	92	149	244	108	68	117	162	124	113	188
fortement	ADV	6.748	18.485	124.732	603	0	10	100	6	54	49	76	60	24	55	76	58	49	102
fournir	V	2.847	52.315	148.934	720	0	10	99	5	63	100	63	106	76	65	42	63	55	87
fréquemment	ADV	10.481	5.230	54.816	265	0	10	88	6	28	18	14	34	19	38	19	36	19	40
fréquence	N	6.249	10.460	65.365	316	0	10	62	7	6	24	20	17	32	144	26	7	27	13
fréquent	A	6.323	8.898	56.264	272	0	10	82	6	24	16	19	33	36	56	27	13	17	31
frontière	N	2.869	49.311	141.487	684	0	10	85	5	50	22	146	84	64	79	10	113	27	89
futur	A	1.350	56.215	75.915	367	0	10	86	6	15	95	25	39	6	32	42	34	27	52
gain	N	3.183	10.916	34.751	168	0	10	55	9	7	78	13	17	5	1	13	7	10	17
garantir	V	2.025	29.217	59.160	286	0	10	80	7	9	103	12	33	18	11	14	36	18	32
général	A	1.834	184.431	338.204	1635	0	10	100	5	95	150	94	335	143	84	157	266	95	216
généralement	ADV	8.077	16.595	134.040	648	0	10	96	4	79	47	55	67	81	66	37	66	64	86
généralisation	N	11.672	2.499	29.166	141	0	10	51	5	17	8	10	8	26	11	16	10	16	19
généraliser	V	7.691	6.535	50.265	243	0	10	81	7	34	51	19	18	26	14	17	20	18	26
générer	V	5.136	9.667	49.645	240	0	10	72	5	20	24	14	13	26	40	14	32	31	26
générique	A	32.808	1.185	38.888	188	0	10	50	7	20	7	5	8	59	9	8	40	12	20
genèse	N	13.103	2.731	35.785	173	0	10	57	5	16	4	8	31	19	4	20	46	4	21
genre	N	1.142	158.169	180.582	873	0	10	93	7	89	12	22	120	220	26	59	50	81	194
global	A	8.332	17.652	147.072	711	0	10	92	6	36	115	121	27	39	147	65	57	57	47
globalement	ADV	8.165	6.359	51.920	251	0	10	77	4	11	19	38	21	25	40	31	14	21	31
grand	A	0.972	785.272	763.286	3690	0	10	100	6	380	181	688	654	290	143	246	397	228	483
groupe	N	2.316	263.335	610.008	2949	0	10	99	6	285	96	148	197	166	568	507	430	191	361
guère	ADV	1.155	51.562	59.574	288	0	10	81	5	48	8	22	66	22	1	26	33	23	39
guider	V	1.033	29.233	30.200	146	0	10	74	5	12	7	13	15	15	25	20	18	10	11
habituellement	ADV	2.350	8.890	20.892	101	0	10	54	5	10	9	4	11	13	18	10	8	9	9
hasard	N	1.154	26.181	30.200	146	0	10	51	7	12	54	4	15	8	18	13	10	4	8
hériter	V	2.049	16.963	34.751	168	0	10	54	6	50	1	19	20	29	1	6	9	16	17
hétérogène	A	67.404	0.657	44.266	214	0	10	72	5	12	25	12	6	26	14	33	19	35	32
heurter	V	1.036	26.165	27.098	131	0	10	67	5	16	4	11	14	22	5	9	25	7	18
hiérarchie	N	7.459	9.651	71.985	348	0	10	85	5	57	15	26	45	16	23	45	40	32	49
hiérarchique	A	16.516	2.355	38.888	188	0	10	60	4	25	1	26	5	12	31	22	22	26	18
hiérarchiser	V	19.253	0.881	16.962	82	0	10	51	5	14	4	8	8	3	3	14	8	9	11
homogène	A	18.611	2.178	40.543	196	0	10	71	6	8	36	29	8	31	15	20	16	12	21
horizon	N	1.802	18.709	33.717	163	0	10	60	6	16	44	6	11	11	2	16	14	14	29
horizontal	A	6.278	2.603	16.341	79	0	10	42	4	9	13	7	7	8	9	4	4	16	2
humain	A	1.004	175.309	176.032	930	79	10	96	6	215	24	107	41	105	74	80	68	112	104
hypothèse	N	16.144	25.677	414.533	2004	0	10	97	7	68	637	71	62	386	346	149	76	72	137
ibid.	ADV	1353.365	0.080	108.391	524	0	9	63	6	116	0	8	209	36	4	10	67	5	69
idéal	A	1.554	18.373	28.546	138	0	10	55	6	14	2	10	17	3	18	26	11	15	22
idée	N	1.138	295.964	336.756	1628	0	10	100	4	178	53	76	184	222	146	196	191	114	268
identification	N	14.842	8.474	125.766	608	0	10	83	6	30	23	12	42	89	186	27	63	56	80
identifier	V	4.378	43.473	190.304	920	0	10	99	7	69	55	51	73	88	193	77	94	127	93
identique	A	5.546	15.666	86.878	420	0	10	87	6	33	117	23	36	38	83	42	21	14	13
identité	N	5.922	43.032	254.842	1232	0	10	96	7	107	14	65	174	84	85	134	251	188	130
idéologie	N	7.368	5.334	39.302	190	0	9	65	6	38	0	13	25	13	2	11	28	38	22
illustration	N	4.988	6.760	33.717	163	0	10	63	7	34	10	10	23	11	9	14	12	15	25
illustrer	V	6.045	15.569	94.118	455	0	10	88	7	39	23	52	34	99	38	43	49	37	41
image	N	2.752	120.719	332.205	1606	0	10	95	7	504	10	119	188	77	363	104	58	136	47
immédiat	A	2.240	24.195	54.195	262	0	10	83	6	31	38	14	35	27	49	18	13	11	26
impact	N	4.641	23.042	106.943	517	0	10	89	5	11	131	51	25	15	63	54	54	40	73
implication	N	9.226	9.058	83.568	404	0	10	83	8	25	39	24	55	27	136	33	23	14	28
implicite	A	46.772	1.610	75.294	364	0	10	76	5	19	36	9	5	70	95	52	15	21	42
implicitement	ADV	15.328	1.714	26.270	127	0	10	60	6	9	29	7	10	15	11	13	13	7	13
impliquer	V	5.655	44.922	254.015	1228	0	10	100	5	98	156	73	86	149	204	84	123	108	147
importance	N	3.196	59.675	190.718	922	0	10	98	4	78	58	77	123	45	144	87	107	83	120
important	A	2.210	156.880	346.685	1676	0	10	100	6	80	170	136	255	90	225	206	186	98	230
importer	V	1.055	128.208	135.282	654	0	10	100	6	65	73	42	95	44	67	68	74	55	71
imposer	V	2.489	79.209	197.130	953	0	10	100	4	119	68	73	140	86	33	84	144	81	125
impossibilité	N	6.513	3.684	23.995	116	0	10	55	6	12	11	3	12	35	15	6	8	5	9
incertain	A	1.696	10.492	17.789	86	0	10	56	5	7	12	8	14	6	3	10	9	2	15
incertitude	N	3.992	10.155	40.543	196	0	10	62	6	6	69	21	17	6	12	22	12	7	24
incidence	N	9.585	2.331	22.340	108	0	10	51	7	5	7	16	9	25	5	8	6	6	21
inciter	V	2.488	21.368	53.161	257	0	10	81	6	17	41	18	36	10	28	14	44	22	27
inclure	V	6.127	11.917	73.019	353	0	10	88	5	26	41	32	37	41	42	42	40	23	29
incompatible	A	5.546	2.611	14.480	70	0	10	47	5	8	6	1	5	16	7	6	6	7	8
incontournable	A	2.365	7.697	18.203	88	0	10	49	5	5	2	13	4	6	3	14	15	14	12
indépendance	N	1.483	27.054	40.129	194	0	10	61	7	18	23	48	37	9	11	4	15	8	21
indépendant	A	3.542	26.686	94.532	457	0	10	88	6	34	96	22	42	21	66	34	66	20	56
indicateur	N	17.241	6.071	104.667	506	0	10	70	5	1	55	78	11	4	35	132	91	51	48
indication	N	3.402	7.601	25.857	125	0	10	55	5	16	6	3	22	25	14	15	7	6	11
indice	N	5.827	26.446	154.105	745	0	10	82	7	25	39	48	26	72	314	53	129	23	16
indiquer	V	1.718	108.506	186.374	901	0	10	96	7	67	68	31	116	104	215	104	66	61	69
indirect	A	15.497	3.604	55.850	270	0	10	69	8	11	31	14	18	129	17	15	18	4	13
indirectement	ADV	5.219	2.339	12.204	59	0	10	47	5	5	4	6	7	7	10	7	7	2	4
indispensable	A	1.940	18.981	36.820	178	0	10	81	5	20	11	30	26	19	7	9	21	20	15
indissociable	A	10.471	1.185	12.411	60	0	8	40	5	11	0	3	4	13	0	7	5	7	10
individu	N	12.424	36.345	451.559	2183	0	10	96	6	141	417	104	80	71	317	164	207	293	389
individuel	A	10.585	22.473	237.880	1150	0	10	93	5	69	207	59	46	37	135	129	158	92	218
induire	V	15.991	4.101	65.572	317	0	10	82	6	12	56	35	19	27	71	18	28	27	24
inédit	A	2.167	12.598	27.305	132	0	9	58	5	21	0	4	33	4	1	9	19	22	19
inégal	A	6.143	2.963	18.203	88	0	9	45	6	5	3	15	13	5	0	11	16	6	14
inférieur	A	3.714	21.552	80.052	387	0	10	76	7	13	178	29	20	7	41	50	20	6	23
influence	N	7.143	24.355	173.963	841	0	10	93	6	43	57	72	127	42	127	133	97	52	91
influencer	V	6.683	8.449	56.471	273	0	10	84	7	18	32	22	32	10	71	30	19	11	28
influer	V	5.082	2.971	15.100	73	0	10	50	7	4	11	10	8	5	6	12	6	5	6
information	N	5.157	121.584	626.970	3031	0	10	100	7	91	261	153	203	279	480	113	220	1108	123
informel	A	11.310	2.579	29.166	141	0	10	49	6	7	11	13	14	2	9	13	41	25	6
infra	ADV	68.367	0.272	18.617	90	0	10	46	5	12	6	4	15	11	4	8	7	2	21
inhérent	A	12.167	1.938	23.581	114	0	10	54	5	12	7	8	4	15	24	14	6	15	9
initial	A	10.124	11.012	111.494	539	0	10	89	6	17	140	25	22	50	55	131	34	33	32
initialement	ADV	6.161	5.774	35.579	172	0	10	70	5	10	40	16	11	9	21	6	22	12	25
inscrire	V	3.198	57.889	185.133	895	0	10	97	4	97	22	106	107	46	37	101	124	116	139
insister	V	1.264	63.808	80.673	390	0	10	94	4	40	11	23	76	29	17	39	56	42	57
inspirer	V	1.305	39.156	51.093	247	0	10	83	5	29	12	26	36	14	18	24	38	18	32
instance	N	4.378	15.970	69.916	338	0	10	83	5	32	3	26	25	30	31	27	69	43	52
instituer	V	8.724	3.604	31.442	152	0	10	67	7	27	3	11	19	10	6	13	23	12	28
institut	N	2.258	31.427	70.950	343	0	10	75	6	58	3	38	35	3	16	15	73	24	78
instrument	N	5.099	33.790	172.308	833	0	10	86	7	133	97	22	38	34	30	34	389	30	26
instrumental	A	36.088	1.169	42.198	204	0	10	42	6	10	60	2	20	4	3	33	34	17	21
insuffisant	A	2.352	10.468	24.615	119	0	10	64	6	8	19	22	14	6	12	8	10	5	15
intégration	N	14.473	10.548	152.657	738	0	10	92	5	53	72	138	45	23	38	75	138	49	107
intégrer	V	6.037	28.336	171.067	827	0	10	99	5	63	85	121	55	76	69	84	81	105	88
intense	A	1.151	19.045	21.926	106	0	10	50	4	12	5	22	10	2	12	10	7	9	17
intensité	N	4.157	11.445	47.576	230	0	10	71	6	8	14	35	27	21	39	15	35	14	22
interaction	N	85.181	2.499	212.851	1029	0	10	85	6	67	57	62	5	64	307	115	58	139	155
intéressant	A	2.008	44.089	88.533	428	0	10	96	4	35	51	39	43	57	55	39	31	51	27
intéresser	V	1.650	93.257	153.898	744	0	10	100	4	53	88	56	77	69	65	84	87	104	61
intérêt	N	3.233	104.469	337.790	1633	0	10	100	6	104	294	147	238	54	109	111	219	117	240
intermédiaire	N	5.814	5.230	30.407	147	0	10	63	5	13	24	8	35	5	1	6	25	13	17
interne	A	6.840	17.932	122.664	593	0	10	91	6	28	38	31	38	124	70	46	107	53	58
interprétatif	A	225.069	0.112	25.236	122	0	9	43	7	11	0	5	3	32	8	9	7	30	17
interprétation	N	20.338	10.852	220.712	1067	0	10	97	7	89	67	51	49	381	70	45	54	115	146
interpréter	V	4.482	22.337	100.117	484	0	10	93	5	27	56	23	38	111	63	45	32	43	46
interrogation	N	4.170	10.219	42.612	206	0	10	70	6	14	4	14	14	59	4	22	13	22	40
interroger	V	1.879	83.013	155.967	754	0	10	97	7	60	31	53	67	50	45	113	75	129	131
intervenir	V	1.716	73.426	125.973	609	0	10	95	4	50	55	35	42	89	67	48	71	59	93
intrinsèque	A	37.941	0.905	34.338	166	0	10	42	8	8	10	5	4	50	65	10	4	2	8
introduction	N	15.834	6.375	100.944	488	0	10	95	5	34	89	41	70	54	35	44	58	28	35
introduire	V	5.252	25.877	135.902	657	0	10	98	8	42	135	36	47	165	34	46	58	32	62
inverse	A	3.238	5.558	17.996	87	0	10	44	6	7	16	5	7	11	6	14	5	3	13
inverse	N	5.933	10.075	59.780	289	0	10	85	5	25	27	30	26	21	35	44	29	33	19
inversement	ADV	14.925	1.594	23.788	115	0	10	57	5	13	15	5	15	13	8	17	6	6	17
inverser	V	3.504	9.090	31.855	154	0	10	70	3	17	19	13	8	17	18	25	12	6	19
investigation	N	3.012	10.027	30.200	146	0	10	57	5	19	2	9	5	15	12	24	32	22	6
invoquer	V	2.307	11.028	25.443	123	0	10	70	5	17	10	3	18	14	5	23	15	2	16
isolé	A	1.475	10.660	15.721	76	0	10	44	7	7	2	11	10	9	5	12	7	6	7
isoler	V	1.697	15.970	27.098	131	0	10	71	5	13	9	16	15	15	12	11	15	11	14
jugement	N	3.173	28.488	90.395	437	0	10	75	7	17	6	28	96	38	88	75	33	20	36
juger	V	0.946	109.379	103.426	500	0	10	97	6	57	22	22	69	41	78	69	57	31	54
jusqu'alors	ADV	2.900	6.776	19.651	95	0	10	49	6	8	1	10	10	4	9	4	27	7	15
jusque-là	ADV	1.224	18.076	22.133	107	0	10	53	4	15	1	21	18	1	3	9	17	10	12
justification	N	13.728	2.667	36.613	177	0	10	66	6	6	9	7	16	36	5	26	33	22	17
justifier	V	2.719	34.535	93.911	454	0	10	97	4	53	57	23	59	60	21	41	57	25	58
laboratoire	N	2.154	26.982	58.126	281	0	10	71	6	31	7	21	16	11	74	36	22	40	23
large	A	2.378	41.751	99.289	522	42	10	99	6	53	30	68	64	23	37	52	74	64	57
largement	ADV	5.063	33.622	170.240	823	0	10	98	6	59	30	153	108	31	22	69	157	82	112
lecture	N	6.462	32.524	210.162	1016	0	10	93	5	78	13	49	248	105	122	195	38	99	69
lent	A	1.057	25.044	26.477	128	0	10	41	8	6	2	62	16	2	20	7	6	5	2
liaison	N	1.328	21.969	29.166	141	0	10	62	7	11	8	17	19	10	32	10	12	12	10
librement	ADV	0.955	12.991	12.411	60	0	10	41	6	8	5	6	8	2	4	7	6	10	4
lié	A	7.278	8.754	63.711	308	0	10	91	5	23	26	33	28	28	43	41	33	31	22
lien	N	4.337	71.929	311.934	1508	0	10	99	6	131	57	114	193	120	154	156	137	230	216
lier	V	4.767	61.277	292.076	1412	0	10	100	6	114	117	160	146	122	198	135	141	137	142
lieu	N	1.295	241.887	313.175	2062	548	10	100	5	294	80	247	350	163	79	126	192	177	354
limité	A	5.080	7.737	39.302	190	0	10	68	5	18	35	20	17	4	7	23	28	12	26
limite	N	3.399	38.884	132.179	639	0	10	95	4	55	57	101	33	64	110	40	45	56	78
limiter	V	4.207	38.299	161.138	779	0	10	100	6	47	117	113	73	75	67	77	71	59	80
linéaire	A	25.691	1.514	38.888	188	0	10	51	7	3	91	11	5	20	18	12	8	13	7
littérature	N	6.428	17.668	113.562	549	0	10	86	6	34	94	23	77	32	84	29	64	44	68
localement	ADV	8.021	2.811	22.547	109	0	10	46	5	8	20	25	5	2	3	8	16	9	13
localisation	N	17.001	3.492	59.367	287	0	10	55	7	2	23	127	7	65	29	4	5	12	13
localiser	V	2.620	14.921	39.095	189	0	10	60	7	10	14	56	7	30	28	5	16	12	11
logique	A	2.625	17.812	46.749	226	0	10	76	5	32	7	14	16	44	8	22	20	34	29
logique	N	10.099	21.056	212.644	1028	0	10	95	4	118	36	109	64	48	7	132	188	122	204
loi	N	1.309	160.508	210.162	1016	0	10	93	5	109	85	131	104	22	39	90	232	54	150
maintenir	V	1.057	104.533	110.459	534	0	10	95	5	56	51	51	71	22	72	66	57	35	53
maîtrise	N	5.181	13.695	70.950	343	0	10	83	8	28	6	28	31	12	99	53	21	28	37
majeur	A	2.891	32.060	92.670	448	0	10	92	6	46	15	91	64	14	35	35	39	43	66
majoritaire	A	3.080	9.403	28.959	140	0	10	50	7	10	8	32	13	1	1	11	34	9	21
majoritairement	ADV	6.794	4.749	32.269	156	0	10	64	6	13	6	12	15	3	11	22	22	23	29
majorité	N	1.504	75.116	112.942	546	0	10	95	6	40	38	71	73	17	33	70	109	31	64
manière	N	3.705	118.925	440.596	2130	0	10	100	4	242	156	148	218	207	201	212	227	252	267
manifestation	N	1.137	51.866	58.953	285	0	10	81	4	38	4	26	44	35	16	15	44	27	36
manifester	V	2.738	36.193	99.082	479	0	10	92	5	51	5	35	63	89	39	47	46	45	59
manipulation	N	5.468	7.112	38.888	188	0	9	48	8	13	6	0	7	7	63	16	9	57	10
manque	N	1.756	39.925	70.123	339	0	10	90	7	30	15	47	39	16	73	29	33	35	22
marginal	A	23.153	2.475	57.298	277	0	10	60	8	10	173	23	10	5	13	9	16	6	12
marqué	A	3.180	8.001	25.443	123	0	10	72	4	13	1	16	14	19	3	15	21	7	14
marque	N	1.127	51.193	57.712	279	0	10	63	7	38	3	14	20	95	17	4	30	40	18
marquer	V	2.173	81.291	176.652	854	0	10	97	6	82	15	103	105	138	50	98	92	62	109
masquer	V	1.737	12.029	20.892	101	0	10	63	3	13	1	4	10	9	12	11	13	13	15
massif	A	1.472	21.504	31.648	153	0	10	63	6	11	3	26	26	9	1	12	17	18	30
massivement	ADV	3.711	4.069	15.100	73	0	9	42	6	7	0	8	11	6	8	4	7	9	13
matériau	N	2.868	11.397	32.683	158	0	9	56	6	41	0	17	14	13	10	18	13	21	11
matériel	A	8.901	10.155	90.395	437	0	10	76	6	48	5	28	28	111	23	23	44	52	75
matériel	N	1.188	33.958	40.336	195	0	10	56	6	22	3	8	36	7	74	17	10	9	9
maximal	A	3.360	6.095	20.478	99	0	10	41	7	8	30	13	4	19	8	8	4	2	3
maximum	N	1.743	20.407	35.579	172	0	10	60	9	10	91	13	12	9	12	8	5	7	5
mécanique	A	2.939	9.010	26.477	128	0	10	42	8	2	6	7	60	5	10	6	7	8	17
mécanisme	N	11.447	12.414	142.108	687	0	10	88	4	29	100	58	24	47	69	67	88	30	175
médiatiser	V	7.393	2.154	15.928	77	0	10	42	5	10	2	7	2	9	9	6	5	21	6
membre	N	1.981	140.934	279.251	1350	0	10	97	5	147	75	66	247	20	112	52	328	121	182
même	A	1.412	658.330	929.802	4573	78	10	100	5	607	384	353	600	493	423	466	392	319	536
mener	V	1.312	153.348	201.268	973	0	10	97	5	78	59	89	100	47	98	150	133	122	97
mentionner	V	3.872	17.788	68.882	333	0	10	86	6	36	14	10	92	28	24	26	27	37	39
mérite	N	1.436	15.265	21.926	106	0	9	50	5	20	6	6	24	6	0	10	15	5	14
mesure	N	2.484	96.949	240.776	1164	0	10	100	5	84	178	103	132	77	153	124	139	54	120
mesurer	V	2.962	35.760	105.909	512	0	10	91	6	24	65	59	21	29	106	76	58	27	47
méthode	N	5.889	39.372	231.882	1121	0	10	96	5	110	146	98	79	52	158	134	102	148	94
méthodologie	N	53.457	0.689	36.820	178	0	10	50	7	6	8	11	1	2	49	36	12	38	15
méthodologique	A	217.452	0.248	53.989	261	0	10	73	4	29	15	30	4	15	23	36	23	41	45
milieu	N	3.975	63.639	252.981	1223	0	10	94	5	163	11	215	137	15	72	230	172	50	158
minimal	A	6.320	3.404	21.513	104	0	10	48	4	11	17	6	2	18	11	7	8	10	14
minimum	N	1.624	16.434	26.684	129	0	10	62	7	12	32	15	13	5	6	17	10	6	13
minorité	N	4.657	10.171	47.369	229	0	10	52	7	13	1	11	31	1	2	23	97	13	37
mobiliser	V	4.431	26.005	115.217	557	0	10	84	5	34	7	37	46	31	49	56	131	78	88
modalité	N	29.590	4.893	144.797	700	0	10	90	5	57	49	53	26	41	64	108	84	131	87
mode	N	6.143	51.322	315.243	1610	86	10	100	3	167	70	90	136	142	280	150	197	171	207
modèle	N	14.202	44.946	638.347	3086	0	10	99	7	162	1045	241	167	138	354	314	119	203	343
modification	N	5.989	12.502	74.881	362	0	10	90	6	22	59	33	24	37	94	26	25	16	26
modifier	V	3.942	31.587	124.525	602	0	10	94	6	32	147	57	37	67	79	44	43	48	48
moins	ADV	1.606	259.659	417.015	2016	0	10	100	6	189	195	162	253	122	178	265	219	162	271
montrer	V	2.343	269.494	631.521	3053	0	10	100	7	288	399	218	357	243	536	312	247	199	254
mot	N	1.580	239.885	378.954	1832	0	10	94	8	176	1	34	127	631	516	118	71	90	68
motif	N	2.228	24.515	54.609	264	0	10	70	6	28	5	19	35	47	13	7	44	18	48
motiver	V	2.037	14.624	29.787	144	0	10	61	7	12	12	16	19	21	25	5	14	7	13
mouvement	N	2.267	117.524	266.426	1493	205	10	96	7	63	24	129	237	119	88	83	320	66	364
moyen	A	4.482	40.702	182.444	995	113	10	92	5	26	257	85	54	28	163	174	76	19	113
moyen	N	1.383	138.051	190.925	923	0	10	99	4	99	43	80	123	66	73	115	115	93	116
moyenne	N	4.430	16.531	73.226	354	0	10	62	6	4	83	35	11	7	94	61	33	3	23
multiple	A	6.149	8.409	51.713	250	0	10	83	3	26	9	26	17	6	39	27	32	28	40
multiplication	N	4.959	5.006	24.822	120	0	9	55	6	11	0	25	14	3	5	2	28	14	18
multiplier	V	1.795	29.393	52.747	255	0	10	82	5	29	16	38	48	6	8	19	37	28	26
mutation	N	3.978	10.452	41.577	201	0	10	61	5	8	3	36	29	6	4	38	37	17	23
nature	N	4.291	64.889	278.424	1346	0	10	100	6	163	90	333	128	129	84	85	154	75	105
néanmoins	ADV	3.342	36.145	120.802	584	0	10	100	5	51	42	56	77	26	63	55	61	66	87
nécessaire	A	2.884	68.709	198.165	958	0	10	100	7	84	155	78	108	80	88	91	89	79	106
nécessairement	ADV	15.477	6.255	96.807	468	0	10	92	4	56	59	25	28	84	30	45	38	39	64
nécessité	N	4.205	22.577	94.945	459	0	10	97	4	52	19	49	65	39	20	49	74	38	54
nécessiter	V	4.851	13.687	66.400	321	0	10	87	5	18	42	35	29	20	58	36	23	40	20
négatif	A	5.559	20.911	116.251	562	0	10	81	7	16	122	35	23	42	207	62	17	21	17
négligeable	A	5.915	4.581	27.098	131	0	10	62	6	13	17	19	16	5	14	11	19	8	9
négliger	V	2.509	10.716	26.891	130	0	10	73	6	16	21	9	21	13	9	11	13	10	7
net	A	2.288	23.867	54.609	264	0	10	78	7	20	83	36	27	25	7	21	20	4	21
nettement	ADV	3.247	17.011	55.230	267	0	10	88	6	16	23	37	30	28	10	36	26	16	45
niveau	N	5.622	107.809	606.078	3001	71	10	99	5	92	648	274	72	136	556	399	298	181	345
nombre	N	3.675	128.568	472.451	2284	0	10	100	8	139	408	188	233	151	354	185	219	184	223
nommer	V	1.600	44.738	71.571	346	0	10	82	6	51	1	17	83	52	9	27	35	24	47
normatif	A	145.193	0.296	43.025	208	0	10	60	5	10	17	5	10	9	26	35	28	37	31
norme	N	10.242	14.400	147.486	713	0	10	90	7	61	33	19	42	29	61	103	74	142	149
notable	A	7.107	3.260	23.167	112	0	10	63	6	10	9	9	19	4	8	10	21	12	10
notamment	ADV	3.599	119.486	430.046	2079	0	10	100	6	180	126	246	302	118	137	183	327	229	231
note	N	2.985	55.927	166.930	807	0	10	94	6	121	6	56	181	43	85	79	85	64	87
noter	V	3.172	70.944	225.056	1088	0	10	100	6	121	281	60	130	139	99	71	55	70	62
notion	N	17.979	15.129	272.011	1315	0	10	98	5	141	49	124	75	304	97	106	98	116	205
nouveau	A	1.451	593.922	861.541	4165	0	10	100	5	309	227	583	691	162	169	328	629	502	565
nuancer	V	9.433	2.763	26.063	126	0	10	67	5	7	13	15	29	10	7	7	15	13	10
nullement	ADV	2.482	7.416	18.410	89	0	10	41	6	27	1	4	16	13	2	11	7	1	7
objectif	A	5.435	10.276	55.850	270	0	10	78	5	47	23	15	9	26	25	33	29	14	49
objectif	N	3.749	73.819	276.769	1338	0	10	99	4	70	131	142	83	73	175	154	252	136	122
objectiver	V	28.347	0.657	18.617	90	0	9	47	5	7	0	2	1	9	9	15	20	4	23
objet	N	5.992	96.837	580.221	2805	0	10	100	5	298	85	161	154	559	559	275	160	286	268
observable	A	98.468	0.256	25.236	122	0	10	51	5	5	34	3	3	13	16	12	16	7	13
observateur	N	3.579	10.115	36.199	175	0	9	56	7	35	0	29	18	13	30	11	16	10	13
observation	N	13.089	15.962	208.921	1010	0	10	96	5	160	76	43	118	93	95	135	97	99	94
observer	V	3.004	99.840	299.936	1450	0	10	99	6	124	183	93	67	137	287	195	97	118	149
obstacle	N	2.692	16.979	45.714	221	0	10	70	5	19	6	20	7	36	21	44	33	15	20
obtenir	V	2.429	138.035	335.308	1621	0	10	100	7	52	482	104	152	62	288	164	161	54	102
occulter	V	3.002	5.030	15.100	73	0	10	46	5	14	3	4	5	9	1	10	12	5	10
offrir	V	1.214	156.544	190.098	919	0	10	98	6	92	188	82	120	29	34	49	95	125	105
opération	N	1.070	116.178	124.318	601	0	10	91	7	46	40	46	60	90	71	46	61	94	47
opérationnel	A	1.493	12.750	19.030	92	0	10	43	6	1	3	16	3	3	15	5	16	24	6
opératoire	A	7.313	3.140	22.961	111	0	10	48	5	4	14	15	4	9	23	9	3	17	13
opérer	V	4.028	27.831	112.114	542	0	10	96	5	70	17	44	48	58	37	68	86	56	58
opinion	N	2.757	41.559	114.596	659	105	10	77	6	26	66	18	120	53	11	32	206	37	90
opposé	A	2.602	8.586	22.340	108	0	10	56	4	15	13	9	11	15	2	18	4	1	20
opposer	V	2.604	53.452	139.212	673	0	10	98	6	68	21	47	138	94	21	78	68	28	110
opposition	N	2.472	59.755	147.693	714	0	10	91	5	77	20	54	109	106	20	68	123	30	107
option	N	1.726	20.735	35.785	173	0	10	61	5	7	22	9	13	28	16	24	9	9	36
ordinaire	A	2.792	22.153	61.849	299	0	10	74	6	42	7	48	58	20	7	20	29	39	29
ordre	N	1.721	165.858	285.457	1458	78	10	100	4	190	148	70	238	122	137	118	180	65	190
organisation	N	5.598	74.083	414.739	2005	0	10	97	7	127	55	165	205	67	217	164	444	337	224
organisationnel	A	257.714	0.368	94.945	459	0	9	46	8	4	6	6	0	3	176	21	41	155	47
organiser	V	1.186	139.236	165.068	798	0	10	96	4	112	22	81	106	38	53	69	128	97	92
organisme	N	2.379	22.778	54.195	262	0	10	66	5	12	39	28	15	9	10	10	48	31	60
orientation	N	9.871	14.312	141.280	683	0	10	85	5	37	8	38	44	85	66	180	98	27	100
original	A	2.237	22.193	49.645	240	0	10	81	6	18	7	22	39	17	44	16	20	31	26
originalité	N	4.657	4.397	20.478	99	0	9	47	4	11	0	11	11	9	10	6	3	24	14
origine	N	5.008	59.395	297.454	1438	0	10	96	6	156	24	89	189	43	34	251	380	44	228
où	ADV	0.942	144.498	136.109	748	90	10	98	8	57	219	57	60	101	36	48	58	53	59
outil	N	5.329	31.908	170.033	822	0	10	91	4	47	15	80	29	80	74	90	109	242	56
ouvrage	N	3.213	36.241	116.458	563	0	10	87	7	90	2	43	177	47	7	44	49	35	69
pair	N	4.831	9.162	44.266	269	55	10	64	6	22	7	13	10	17	28	83	18	39	32
paradigme	N	86.581	0.705	61.022	295	0	10	63	5	31	6	22	9	36	82	28	13	40	28
paradoxal	A	7.755	3.308	25.650	124	0	10	62	4	14	4	11	4	20	7	12	13	19	20
paradoxalement	ADV	4.127	4.661	19.237	93	0	10	57	4	14	5	11	16	5	2	8	12	8	12
paradoxe	N	4.091	6.928	28.339	137	0	10	59	5	19	8	14	9	26	5	16	12	18	10
paraître	V	0.906	191.519	173.549	839	0	10	97	5	78	33	59	195	115	25	76	104	51	103
parallèle	A	3.507	6.311	22.133	107	0	10	41	6	34	1	2	10	16	7	11	13	3	10
parallèlement	ADV	4.989	7.713	38.475	186	0	10	66	4	6	8	37	21	18	7	19	26	16	28
paramètre	N	27.227	3.252	88.533	428	0	10	55	9	1	297	26	2	34	30	8	5	10	15
parfois	ADV	1.501	139.044	208.714	1009	0	10	100	4	172	22	98	127	65	47	94	117	137	130
partager	V	1.693	86.737	146.865	710	0	10	98	6	104	41	45	49	51	68	52	64	156	80
partant	ADV	6.954	1.874	13.032	63	0	9	47	5	7	4	3	6	9	0	7	6	9	12
participant	N	7.941	19.798	157.208	760	0	10	64	8	13	12	3	6	14	553	26	35	67	31
participer	V	1.769	88.964	157.415	761	0	10	95	4	88	22	64	107	23	82	76	141	88	70
particularité	N	5.695	5.702	32.476	157	0	10	70	5	15	9	21	16	28	5	14	13	17	19
particulier	A	4.984	45.155	225.056	1088	0	10	100	6	94	87	63	123	185	87	97	97	94	161
particulièrement	ADV	4.172	50.176	209.335	1012	0	10	99	4	80	41	110	145	59	102	108	116	98	153
partie	N	1.873	176.902	331.378	1602	0	10	100	6	139	133	208	235	197	90	116	169	135	180
partiel	A	3.724	9.387	34.958	169	0	10	64	5	16	28	16	14	33	11	17	9	5	20
partiellement	ADV	7.767	5.646	43.853	212	0	10	78	6	15	36	14	16	41	20	24	23	8	15
perception	N	12.454	8.321	103.633	501	0	10	93	6	50	14	43	36	81	124	48	29	25	51
performance	N	8.102	24.868	201.474	974	0	10	63	8	81	14	6	13	25	447	293	40	23	32
période	N	5.108	69.085	352.890	1706	0	10	95	7	82	572	173	271	15	39	114	162	86	192
permettre	V	3.625	290.342	1052.466	5088	0	10	100	4	331	585	432	416	453	691	522	558	590	510
perspective	N	7.008	30.402	213.058	1030	0	10	99	5	89	56	71	93	94	76	93	200	107	151
perte	N	1.282	48.566	62.263	301	0	10	81	8	17	91	28	40	17	23	12	20	22	31
pertinence	N	21.775	2.603	56.678	274	0	10	83	7	25	8	20	8	96	20	30	16	15	36
pertinent	A	16.931	5.278	89.360	432	0	10	88	6	16	40	30	18	92	77	65	27	32	35
peu	ADV	1.943	132.893	258.152	1248	0	10	100	5	104	80	145	163	76	147	121	129	143	140
phase	N	4.752	26.942	128.042	619	0	10	86	7	40	44	59	18	51	233	31	47	71	25
phénomène	N	7.806	30.578	238.708	1154	0	10	99	5	94	59	131	89	167	55	165	62	99	233
placer	V	0.907	162.374	147.279	712	0	10	100	5	97	40	66	102	39	45	68	115	65	75
plan	N	1.071	157.056	168.171	1100	287	10	100	6	91	45	160	141	143	94	112	157	59	98
pleinement	ADV	2.971	9.955	29.580	143	0	10	64	6	16	5	13	18	12	7	7	16	22	27
plus	ADV	1.149	2207.427	2537.254	12617	351	10	100	4	1204	1231	1162	1506	855	1283	1439	1284	1043	1610
plutôt	ADV	1.388	145.003	201.268	973	0	10	100	4	116	50	82	105	122	74	112	81	88	143
poids	N	1.374	60.516	83.155	402	0	10	91	8	26	24	85	55	11	70	31	45	13	42
point	N	1.287	253.628	326.413	1726	148	10	100	5	164	215	140	197	206	152	168	208	132	144
pôle	N	2.749	23.851	65.572	317	0	9	64	7	9	0	55	31	24	21	24	50	9	94
population	N	4.742	64.344	305.108	1475	0	10	95	8	108	124	457	198	9	70	94	164	56	195
portée	N	3.758	13.928	52.334	253	0	10	76	6	31	7	51	23	49	9	12	31	15	25
porter	V	1.088	320.864	348.960	1687	0	10	100	5	175	79	137	299	130	179	145	219	157	167
porteur	A	3.613	11.509	41.577	201	0	10	72	4	36	3	25	25	6	5	22	26	17	36
posé	A	2.132	9.507	20.272	98	0	10	59	4	8	5	5	7	11	9	9	18	12	14
positif	A	4.426	26.966	119.354	577	0	10	84	7	15	181	28	12	31	158	69	21	24	38
position	N	3.295	99.015	326.207	1622	45	10	100	7	145	57	94	142	300	138	137	226	120	263
positionnement	N	14.894	2.403	35.785	173	0	10	53	6	8	2	18	1	25	14	14	28	48	15
positivement	ADV	17.656	1.418	25.029	121	0	10	41	7	1	29	5	2	6	53	12	2	5	6
posséder	V	1.477	69.478	102.599	496	0	10	94	5	71	41	50	59	45	79	33	25	55	38
possibilité	N	3.939	49.888	196.510	950	0	10	97	5	68	144	56	48	96	142	67	88	105	136
possible	A	2.187	144.971	317.105	1533	0	10	100	7	143	207	95	161	235	168	120	114	123	167
postuler	V	9.180	3.019	27.718	134	0	10	57	6	10	18	9	5	32	20	14	6	7	13
posture	N	5.187	7.576	39.302	190	0	9	58	5	25	0	4	14	7	33	30	25	37	15
potentiellement	ADV	7.044	3.612	25.443	123	0	10	58	5	7	12	14	6	6	9	21	19	20	9
pourcentage	N	11.936	5.078	60.608	293	0	10	56	8	3	14	12	6	8	121	68	33	5	23
pourtant	ADV	1.007	180.554	181.823	879	0	10	99	4	105	23	85	167	68	33	96	115	89	98
pragmatique	A	16.646	3.132	52.127	252	0	10	49	8	5	3	4	7	142	39	13	12	19	8
pratique	A	3.323	22.345	74.260	359	0	10	83	6	35	10	15	53	6	19	68	60	48	45
pratique	N	17.508	34.262	599.872	2900	0	10	100	6	373	41	191	278	42	129	696	329	519	302
pratiquer	V	2.470	37.682	93.084	450	0	10	87	5	84	58	38	54	10	19	68	40	22	57
préalable	A	6.550	5.022	32.890	159	0	10	62	5	11	13	5	14	18	33	15	11	18	21
préalablement	ADV	8.077	2.202	17.789	86	0	10	43	7	5	11	7	5	3	26	6	6	10	7
précédemment	ADV	5.500	8.914	49.024	237	0	10	73	6	6	60	9	12	19	34	27	20	30	20
précédent	A	2.886	43.361	125.146	605	0	10	99	7	39	149	39	78	63	46	62	47	35	47
précéder	V	2.525	20.647	52.127	252	0	10	85	6	42	17	7	42	44	29	18	18	16	19
précis	A	1.905	46.580	88.740	429	0	10	97	5	52	22	28	64	54	32	50	54	36	37
précisément	ADV	5.743	23.410	134.454	650	0	10	97	5	69	80	32	62	81	53	72	60	69	72
préciser	V	1.532	86.945	133.213	644	0	10	100	6	60	44	36	94	75	84	71	55	57	68
précision	N	1.975	22.209	43.853	212	0	10	80	7	19	17	10	35	40	28	12	22	11	18
préconiser	V	2.233	8.706	19.444	94	0	10	46	6	8	21	8	7	1	7	11	15	7	9
préférence	N	13.096	8.530	111.700	540	0	10	67	8	7	309	14	12	27	29	7	78	15	42
prégnant	A	26.258	0.481	12.618	61	0	9	45	4	10	0	8	8	2	3	6	8	9	7
premier	A	1.099	759.163	834.030	4455	423	10	100	6	504	501	347	675	385	399	364	516	343	421
première	A	1.738	21.656	37.647	182	0	10	68	5	22	32	27	24	26	4	4	8	16	19
premièrement	ADV	2.753	8.041	22.133	107	0	10	54	5	13	17	5	9	13	17	3	13	8	9
préoccupation	N	3.977	12.430	49.438	239	0	10	82	6	24	14	36	36	21	13	21	33	14	27
préparation	N	1.306	23.122	30.200	146	0	9	50	5	25	0	2	43	8	17	17	10	4	20
prépondérant	A	8.204	1.362	11.170	54	0	10	41	6	3	3	8	6	3	4	7	6	6	8
présence	N	2.136	89.388	190.925	923	0	10	99	4	110	68	78	121	114	88	57	95	88	104
présent	A	2.362	73.050	172.515	834	0	10	99	3	62	88	71	101	87	92	73	95	74	91
présentation	N	5.628	21.905	123.284	596	0	10	92	9	59	36	23	33	47	219	44	43	49	43
présenter	V	2.390	230.490	550.848	2663	0	10	100	7	186	198	154	277	301	544	246	272	219	266
prétendre	V	1.080	47.517	51.299	248	0	10	76	5	59	5	6	46	26	2	27	42	10	25
primordial	A	3.059	4.869	14.893	72	0	10	45	5	13	5	9	4	3	4	11	12	7	4
principal	A	2.509	99.343	249.257	1205	0	10	99	5	93	69	170	173	75	124	82	162	122	135
principalement	ADV	7.954	11.573	92.049	445	0	10	89	4	41	21	52	49	19	42	69	53	47	52
principe	N	5.844	45.907	268.288	1297	0	10	97	5	156	82	91	74	200	66	136	203	90	199
priorité	N	1.512	25.036	37.854	183	0	10	63	7	8	4	36	20	4	13	26	43	9	20
privilégié	A	5.928	3.908	23.167	112	0	9	55	4	14	1	19	19	7	0	11	16	8	17
privilégier	V	7.507	15.954	119.768	579	0	10	96	5	52	26	70	60	64	26	60	55	78	88
probable	A	1.677	21.096	35.372	171	0	10	70	6	10	26	14	30	8	26	31	12	4	10
problématique	A	15.248	1.994	30.407	147	0	10	60	5	18	4	6	10	24	12	17	15	16	25
problématique	N	22.473	3.083	69.296	335	0	10	85	5	27	32	34	17	57	23	39	34	47	25
problème	N	1.370	305.142	418.049	2021	0	10	100	6	127	323	131	153	217	344	174	238	102	212
procédé	N	6.231	7.336	45.714	221	0	10	57	6	27	1	6	66	35	9	7	21	42	7
procéder	V	2.319	31.659	73.433	355	0	10	90	4	41	41	25	38	35	17	39	44	38	37
procédure	N	3.013	37.898	114.183	552	0	10	87	5	21	73	17	34	18	130	49	113	49	48
processus	N	18.877	27.319	515.683	2493	0	10	100	4	116	241	262	155	165	393	232	415	267	247
proche	A	1.882	78.792	148.313	717	0	10	100	5	63	86	87	75	61	44	69	80	60	92
production	N	7.160	52.467	375.644	1816	0	10	99	6	111	399	210	148	107	193	106	161	224	157
produire	V	2.791	113.303	316.278	1529	0	10	100	5	123	214	93	100	118	194	148	163	189	187
profil	N	4.256	19.734	83.982	406	0	10	69	7	9	56	27	9	11	112	27	39	75	41
profond	A	0.981	57.969	56.884	275	0	10	82	5	24	3	32	41	26	29	21	45	18	36
profondément	ADV	1.028	26.558	27.305	132	0	10	62	5	15	5	15	24	5	4	10	28	7	19
programme	N	2.392	108.001	258.359	1249	0	10	96	6	74	96	186	55	46	36	264	223	141	128
progrès	N	1.912	23.691	45.301	219	0	10	72	7	16	14	12	35	14	3	60	29	8	28
progresser	V	0.937	26.702	25.029	121	0	10	44	7	10	6	13	3	4	3	47	24	3	8
progressif	A	9.344	5.070	47.369	229	0	10	82	6	10	9	37	36	10	26	21	40	16	24
progression	N	2.579	16.122	41.577	201	0	10	58	7	8	8	40	9	17	21	54	17	15	12
progressivement	ADV	7.891	10.171	80.259	388	0	10	87	6	28	17	57	52	10	25	24	73	35	67
projet	N	1.660	205.943	341.927	1653	0	10	95	7	93	54	363	206	51	71	127	289	218	181
prolonger	V	1.899	18.629	35.372	171	0	10	75	6	11	15	27	22	13	3	14	26	23	17
prôner	V	1.705	8.009	13.652	66	0	10	46	3	7	4	9	11	1	1	8	9	8	8
propice	A	2.615	6.407	16.755	81	0	10	52	6	7	5	12	17	5	5	3	8	7	12
proportion	N	8.193	9.771	80.052	387	0	10	73	5	10	88	41	37	6	54	47	29	24	51
proposer	V	2.404	188.700	453.628	2193	0	10	100	4	167	269	133	135	266	267	214	180	304	258
proposition	N	3.519	48.671	171.274	828	0	10	94	7	60	253	36	33	106	62	29	143	32	74
propre	A	1.616	178.400	288.352	1394	0	10	100	5	190	62	99	164	133	99	157	153	167	170
proprement	ADV	5.242	8.129	42.612	206	0	10	78	5	23	15	13	33	25	10	26	15	17	29
propriété	N	7.543	29.177	220.091	1064	0	10	90	7	45	151	73	56	453	98	40	62	30	56
protagoniste	N	5.371	4.621	24.822	120	0	10	43	7	20	1	3	19	5	13	3	11	36	9
provenir	V	2.659	24.427	64.952	314	0	10	86	6	23	58	34	37	24	26	29	27	27	29
provoquer	V	1.176	66.659	78.397	379	0	10	89	6	45	10	36	75	30	50	29	36	31	37
proximité	N	7.889	15.025	118.527	573	0	10	83	6	36	5	71	28	56	40	46	161	40	90
publication	N	7.214	13.191	95.152	460	0	10	79	7	44	4	13	133	15	4	19	67	128	33
publier	V	2.140	65.065	139.212	673	0	10	82	6	75	6	31	232	29	3	31	118	99	49
purement	ADV	4.588	6.808	31.235	151	0	10	68	6	25	21	8	15	24	6	17	15	8	12
qualifier	V	2.676	38.491	103.013	498	0	10	95	4	57	44	45	54	35	26	60	51	60	66
qualitatif	A	41.866	0.993	41.577	201	0	10	64	4	5	22	25	3	26	20	25	14	46	15
qualité	N	3.356	74.572	250.292	1210	0	10	100	9	67	430	91	93	68	66	100	84	89	122
quantitatif	A	53.015	0.913	48.404	234	0	10	69	6	7	6	29	13	35	17	26	15	67	19
quantité	N	3.863	23.987	92.670	448	0	10	64	8	9	271	28	26	41	26	9	14	13	11
quasi	ADV	2.591	12.214	31.648	153	0	10	67	6	29	4	20	19	8	5	29	5	17	17
quasiment	ADV	1.173	19.398	22.754	110	0	10	60	5	13	7	15	9	7	7	15	15	9	13
question	N	1.783	422.305	752.943	3706	66	10	100	5	350	136	279	397	633	186	394	453	365	513
questionnaire	N	26.206	3.276	85.844	415	0	10	58	6	10	7	20	7	22	151	40	48	31	79
questionnement	N	32.945	1.017	33.510	162	0	10	55	6	16	1	7	10	8	14	21	20	41	24
questionner	V	1.764	12.662	22.340	108	0	10	43	5	15	2	8	2	12	5	20	13	19	12
radical	A	2.652	16.378	43.439	210	0	10	72	5	32	8	11	28	22	2	14	28	18	47
radicalement	ADV	4.916	3.156	15.514	75	0	10	46	4	8	2	8	6	9	2	9	8	8	15
raisonnement	N	6.244	8.017	50.058	242	0	10	67	5	13	28	8	19	24	38	44	14	5	49
raisonner	V	2.387	6.760	16.135	78	0	10	47	5	6	13	9	6	10	4	12	3	4	11
rang	N	1.487	39.356	58.539	283	0	10	72	5	32	66	26	48	7	30	23	31	4	16
rapide	A	1.104	60.868	67.227	325	0	10	84	7	17	20	85	45	29	49	15	17	24	24
rapidement	ADV	1.008	78.624	79.225	383	0	10	96	5	38	16	35	81	24	39	32	42	33	43
rapport	N	3.246	133.189	432.322	2162	72	10	99	5	197	96	153	326	220	79	231	398	182	280
rapprochement	N	2.944	10.260	30.200	146	0	10	64	5	21	1	12	18	27	6	4	24	16	17
rapprocher	V	1.549	40.453	62.676	303	0	10	89	6	34	23	24	45	41	20	28	27	23	38
rare	A	1.240	58.554	72.605	351	0	10	94	5	60	8	37	60	25	20	31	25	51	34
rarement	ADV	2.289	21.144	48.404	234	0	10	84	6	28	11	13	31	17	19	25	22	31	37
rassembler	V	0.950	52.899	50.265	243	0	9	78	5	35	0	13	50	18	10	11	36	39	31
rattacher	V	5.886	5.166	30.407	147	0	10	61	5	14	6	9	29	26	1	7	20	13	22
réalisation	N	5.654	17.123	96.807	468	0	10	91	6	39	65	33	23	68	71	23	52	49	45
réaliser	V	2.422	126.910	307.383	1486	0	10	100	6	105	172	91	96	110	339	138	153	128	154
récemment	ADV	1.598	38.195	61.022	295	0	10	91	5	30	19	32	49	11	27	23	56	26	22
recenser	V	2.695	9.595	25.857	125	0	10	62	5	6	16	17	15	6	6	9	15	11	24
récent	A	3.277	36.801	120.595	583	0	10	99	5	68	71	86	60	21	45	55	62	57	58
recherche	N	5.158	125.132	645.380	3120	0	10	100	6	192	179	132	179	141	487	398	467	632	313
rechercher	V	1.417	38.259	54.195	262	0	10	87	7	23	13	20	21	23	34	18	33	48	29
réciproque	A	6.916	2.931	20.272	98	0	10	47	6	16	3	4	8	4	12	5	10	10	26
reconnaissance	N	7.056	25.741	181.617	878	0	10	90	6	79	6	34	73	31	140	113	102	214	86
reconnaître	V	1.055	171.737	181.203	876	0	10	97	6	145	13	70	160	64	64	99	87	67	107
reconnu	A	3.964	5.062	20.065	97	0	9	52	5	14	3	12	11	3	0	15	10	11	18
reconstituer	V	2.566	9.755	25.029	121	0	10	54	6	25	10	17	26	10	1	7	15	6	4
reconstruire	V	2.205	8.914	19.651	95	0	10	51	7	8	2	17	13	20	4	6	3	7	15
recourir	V	5.906	8.161	48.197	233	0	10	79	6	24	29	19	29	18	30	17	25	15	27
recours	N	3.872	25.805	99.910	483	0	10	93	5	48	45	41	62	38	58	28	68	26	69
recouvrir	V	1.217	27.695	33.717	163	0	10	74	5	25	5	22	27	9	7	13	19	23	13
recueil	N	5.755	6.039	34.751	168	0	9	66	6	13	0	6	31	7	32	18	6	45	10
recueillir	V	1.694	27.959	47.369	229	0	10	80	5	35	5	7	34	5	37	23	41	23	19
récurrent	A	7.529	4.725	35.579	172	0	10	66	5	21	18	22	9	11	5	13	24	31	18
redéfinir	V	10.577	1.682	17.789	86	0	9	52	4	12	3	3	4	8	0	9	18	15	14
réduction	N	4.548	18.148	82.534	399	0	10	78	6	16	96	67	25	59	47	26	22	13	28
réduire	V	2.622	68.076	178.514	863	0	10	99	5	82	145	85	81	48	92	95	58	69	108
réel	N	4.324	7.272	31.442	152	0	10	51	6	21	11	4	6	28	7	31	10	26	8
réellement	ADV	1.433	26.558	38.061	184	0	10	73	5	10	18	20	35	8	21	26	14	15	17
référence	N	9.760	24.395	238.087	1262	111	10	100	6	116	131	99	105	211	104	141	63	165	127
référer	V	14.140	4.637	65.572	317	0	10	84	7	28	13	15	17	93	38	41	21	16	35
refléter	V	4.830	11.605	56.057	271	0	10	80	6	19	34	23	31	17	53	36	26	17	15
réflexion	N	3.474	39.717	137.971	667	0	10	96	4	83	14	71	82	61	40	81	67	76	92
règle	N	3.472	67.748	235.191	1178	41	10	99	5	158	174	42	60	76	152	166	126	79	145
regrouper	V	3.332	22.786	75.915	367	0	10	85	6	31	12	57	27	18	47	30	48	57	40
régulier	A	2.422	20.415	49.438	239	0	10	80	7	23	6	31	35	45	15	10	26	26	22
régulièrement	ADV	1.932	27.198	52.541	254	0	10	81	6	35	1	18	42	7	11	19	47	48	26
rejet	N	3.883	9.162	35.579	172	0	10	66	6	12	25	16	21	19	6	7	19	13	34
rejeter	V	1.510	37.250	56.264	272	0	10	77	9	16	92	10	43	16	15	12	23	15	30
relatif	A	12.405	16.474	204.370	988	0	10	100	5	72	170	103	65	94	149	99	92	55	89
relation	N	9.086	86.241	783.558	3788	0	10	100	6	334	229	273	258	765	298	402	225	361	643
relationnel	A	42.480	1.217	51.713	250	0	10	52	6	8	3	5	3	33	15	31	11	69	72
relativement	ADV	10.601	11.493	121.836	589	0	10	96	5	45	81	56	49	30	64	58	49	47	110
relativiser	V	4.523	3.796	17.169	83	0	10	49	5	5	5	4	16	4	5	9	10	11	14
relever	V	2.258	92.512	208.921	1010	0	10	99	5	132	38	59	109	150	84	98	77	138	125
relier	V	2.966	23.643	70.123	339	0	10	86	6	16	17	90	25	44	52	36	15	27	17
remarquable	A	1.365	19.246	26.270	127	0	10	61	6	18	3	20	34	5	6	11	13	5	12
remarque	N	3.205	15.618	50.058	242	0	10	86	5	37	32	5	26	37	10	22	25	21	27
remplacer	V	0.959	56.960	54.609	264	0	10	82	7	20	30	17	54	53	16	12	26	21	15
renforcement	N	5.119	6.183	31.648	153	0	10	57	7	9	7	21	18	6	7	12	30	9	34
renforcer	V	2.812	40.453	113.769	550	0	10	94	6	48	21	82	83	22	32	39	89	56	78
renouveler	V	1.811	19.990	36.199	175	0	10	68	5	19	5	22	24	5	4	15	33	25	23
renvoyer	V	4.069	40.517	164.861	797	0	10	97	5	121	20	25	90	119	60	81	76	88	117
répartir	V	3.024	14.160	42.818	207	0	10	78	7	17	17	24	17	11	54	20	19	17	11
répartition	N	16.117	6.071	97.841	473	0	10	79	7	36	190	52	21	11	39	43	30	16	35
repère	N	3.862	8.409	32.476	157	0	10	55	6	15	2	7	10	32	42	19	4	13	13
repérer	V	1.534	42.888	65.779	318	0	10	76	6	26	4	7	22	43	35	64	29	53	35
replacer	V	3.000	4.757	14.273	69	0	10	43	5	8	3	14	12	4	1	4	7	8	8
réponse	N	2.131	120.551	256.911	1242	0	10	98	7	52	78	36	69	266	299	158	79	87	118
reporter	V	1.519	17.299	26.270	127	0	9	52	7	24	30	5	31	6	7	5	8	0	11
reposer	V	2.518	61.781	155.553	752	0	10	99	4	51	77	70	60	77	49	38	105	110	115
représentatif	A	8.541	5.086	43.439	210	0	10	74	7	11	50	14	15	17	14	10	41	9	29
représentation	N	20.593	19.838	408.534	1975	0	10	99	7	195	52	133	227	278	398	166	162	113	251
représenter	V	2.954	113.631	335.722	1623	0	10	99	6	158	218	192	227	181	136	85	139	140	147
reproduire	V	2.425	17.227	41.784	202	0	10	82	6	37	13	10	28	17	23	18	21	18	17
réseau	N	6.332	58.802	372.335	1800	0	10	91	6	44	321	313	181	50	18	169	182	353	169
résider	V	4.368	13.639	59.574	288	0	10	78	6	28	25	35	39	18	13	24	33	22	51
résolution	N	5.795	11.173	64.745	313	0	10	65	6	8	51	43	16	15	74	12	63	15	16
résoudre	V	1.393	44.562	62.056	300	0	10	90	7	17	59	19	24	39	54	21	27	14	26
respecter	V	1.040	62.038	64.538	312	0	10	87	5	35	40	18	42	13	26	29	38	24	47
respectif	A	5.369	6.511	34.958	169	0	10	73	5	18	23	16	15	11	15	12	19	22	18
respectivement	ADV	8.416	8.578	72.192	349	0	10	78	7	9	92	23	18	19	111	31	17	12	17
ressortir	V	1.288	24.900	32.062	155	0	10	70	7	16	12	20	20	8	9	13	13	29	15
restituer	V	4.085	6.431	26.270	127	0	10	52	6	25	2	7	9	10	25	7	15	8	19
restreindre	V	8.362	6.704	56.057	271	0	10	86	5	26	29	22	27	47	17	16	32	24	31
restrictif	A	8.231	1.458	11.997	58	0	10	41	6	2	14	6	6	11	6	2	3	3	5
résultat	N	4.418	131.668	581.669	2812	0	10	100	7	66	633	97	72	169	790	417	210	136	222
résulter	V	12.615	7.609	95.980	464	0	10	94	5	45	94	50	29	47	45	22	54	28	50
résumer	V	3.335	29.954	99.910	483	0	10	100	5	70	38	59	49	35	34	45	44	47	62
retenir	V	1.403	92.311	129.490	626	0	10	99	7	47	149	54	56	37	96	43	58	27	59
retracer	V	2.616	6.880	17.996	87	0	10	50	5	10	10	7	13	5	2	8	13	7	12
révélateur	A	6.084	3.604	21.926	106	0	10	51	5	12	2	14	26	7	2	4	18	11	10
révéler	V	1.981	79.257	157.001	759	0	10	99	6	64	54	76	126	54	110	80	59	54	82
revendiquer	V	2.712	17.387	47.162	228	0	10	74	6	36	1	13	28	19	2	12	39	37	41
revêtir	V	3.166	8.297	26.270	127	0	10	60	6	20	3	10	38	2	7	8	10	14	15
rigoureux	A	2.763	5.390	14.893	72	0	10	48	7	13	3	2	9	5	4	18	5	3	10
rigueur	N	1.597	14.632	23.374	113	0	10	55	5	16	13	5	11	10	1	20	9	7	21
rôle	N	4.465	92.015	410.809	1986	0	10	100	5	237	83	149	287	222	151	164	244	208	241
rupture	N	3.876	21.776	84.396	408	0	10	90	5	59	25	63	53	24	5	45	33	37	64
saisir	V	1.079	82.396	88.947	430	0	10	89	5	47	2	29	60	27	24	41	67	68	65
satisfaire	V	1.680	36.209	60.815	294	0	10	80	8	24	107	16	15	17	45	14	12	17	27
satisfaisant	A	3.979	5.406	21.513	104	0	10	53	5	4	22	6	8	16	17	10	4	4	13
savoir	N	6.849	36.000	246.568	1192	0	10	84	8	76	6	23	124	52	34	562	63	80	172
schéma	N	8.861	9.875	87.499	423	0	10	83	6	15	17	42	16	121	73	46	29	25	39
science	N	7.104	41.727	296.420	1985	552	10	94	5	246	19	69	255	72	20	257	430	169	448
scientifique	A	5.808	32.052	186.167	900	0	10	91	4	121	10	83	119	56	22	121	137	128	103
second	A	2.516	55.006	138.384	710	41	10	100	6	43	118	46	67	107	85	62	64	57	61
secteur	N	2.943	74.091	218.023	1121	67	10	86	7	20	235	213	71	7	53	73	122	85	242
section	N	3.055	37.306	113.976	551	0	10	76	8	84	237	27	22	43	24	42	35	25	12
segment	N	15.435	2.667	41.164	199	0	10	55	7	7	74	13	5	24	14	5	39	9	9
sélection	N	3.731	26.390	98.462	476	0	10	81	4	23	62	7	7	52	64	94	61	55	51
sélectionner	V	3.146	12.230	38.475	186	0	10	62	6	7	13	10	4	35	59	21	13	16	8
semblable	A	1.927	15.778	30.407	147	0	10	64	6	26	5	17	40	10	11	16	4	9	9
sembler	V	1.507	316.050	476.175	2302	0	10	100	4	249	150	164	378	236	206	290	191	205	233
sens	N	4.079	136.369	556.227	2731	42	10	100	5	289	125	148	160	718	125	351	186	322	307
sensiblement	ADV	8.210	3.452	28.339	137	0	10	68	6	2	30	17	15	7	14	10	10	11	21
séparé	A	2.614	4.669	12.204	59	0	9	41	4	7	3	1	13	6	6	4	10	0	9
séparer	V	1.071	54.077	57.919	280	0	10	90	5	43	24	16	50	29	20	32	17	13	36
séquence	N	7.999	9.154	73.226	354	0	10	61	7	16	10	3	3	130	76	25	16	36	39
série	N	3.145	69.190	217.609	1052	0	10	97	6	81	163	23	87	63	95	44	159	262	75
seuil	N	2.361	35.568	83.982	406	0	10	79	7	7	121	31	61	4	29	36	60	12	45
seulement	ADV	1.178	197.942	233.123	1127	0	10	100	5	153	109	100	146	109	83	120	113	70	124
siècle	N	4.569	87.554	400.053	1934	0	10	84	8	185	6	161	1132	67	1	63	183	15	121
signaler	V	1.746	33.646	58.746	284	0	10	84	6	30	17	13	44	64	29	18	15	25	29
signe	N	1.110	105.102	116.665	564	0	10	91	6	139	56	29	92	85	35	21	37	36	34
significatif	A	18.594	8.522	158.449	766	0	10	88	7	24	76	41	44	29	307	108	54	25	58
signification	N	12.550	8.818	110.666	535	0	10	83	7	53	8	76	52	143	34	81	29	32	27
significativement	ADV	82.588	0.689	56.884	275	0	10	55	7	4	45	9	8	6	124	52	13	5	9
signifier	V	2.140	62.919	134.661	651	0	10	95	6	76	63	39	77	166	39	68	29	31	63
similaire	A	5.211	11.709	61.022	295	0	10	81	7	21	40	23	29	19	61	22	25	26	29
simple	A	1.577	115.834	182.651	883	0	10	100	7	90	119	53	107	166	76	72	53	73	74
simplifier	V	3.703	6.704	24.822	120	0	10	57	8	11	42	7	4	9	8	11	13	8	7
simultané	A	8.579	2.267	19.444	94	0	10	44	6	6	14	7	13	8	15	13	3	8	7
simultanément	ADV	6.834	5.903	40.336	195	0	10	63	4	24	43	9	13	10	29	20	4	19	24
singularité	N	15.155	1.938	29.373	142	0	10	55	6	39	3	5	8	12	5	15	15	21	19
singulier	A	6.025	7.176	43.232	209	0	10	70	6	31	10	17	18	22	13	17	21	32	28
situation	N	4.141	150.617	623.661	3015	0	10	100	7	233	275	205	160	209	934	288	223	189	299
situer	V	3.548	54.621	193.821	937	0	10	100	7	84	39	127	102	81	75	112	89	69	159
socialement	ADV	22.174	2.491	55.230	267	0	10	71	6	17	27	17	18	6	11	48	24	23	76
solution	N	2.136	70.775	151.209	731	0	10	92	7	26	248	47	31	68	90	46	72	52	51
somme	N	1.611	43.016	69.296	335	0	10	76	8	18	92	22	99	16	12	12	31	19	14
souci	N	1.002	44.170	44.266	214	0	10	74	6	30	7	17	24	12	6	42	32	16	28
souligner	V	3.275	72.393	237.053	1146	0	10	99	4	120	65	101	153	117	91	113	120	121	145
soumettre	V	2.580	34.318	88.533	428	0	10	93	5	52	23	36	54	46	46	31	43	58	39
source	N	3.679	57.240	210.576	1018	0	10	100	8	82	55	64	243	88	145	78	112	73	78
sous-jacent	A	13.359	1.858	24.822	120	0	10	53	7	7	20	8	1	34	9	15	8	5	13
sous-tendre	V	29.822	0.777	23.167	112	0	10	56	5	6	7	10	12	15	12	11	10	17	12
soutenir	V	1.178	81.443	95.980	464	0	10	91	5	52	11	25	86	39	32	42	78	28	71
souvent	ADV	2.951	156.952	463.143	2239	0	10	100	4	334	77	198	284	186	111	220	262	237	330
spécialement	ADV	1.740	8.914	15.514	75	0	10	42	6	8	3	6	22	10	3	1	8	3	11
spécialiste	N	1.112	28.472	31.648	153	0	10	53	5	34	4	2	25	5	1	20	32	16	14
spécificité	N	18.971	4.012	76.122	368	0	10	87	4	29	17	31	20	44	21	48	51	55	52
spécifier	V	27.203	1.354	36.820	178	0	10	57	6	7	26	3	5	61	19	25	6	13	13
spécifique	A	18.551	12.366	229.400	1109	0	10	100	4	69	107	89	58	147	144	134	112	112	137
spécifiquement	ADV	22.287	1.986	44.266	214	0	10	77	7	16	18	16	25	16	24	23	12	44	20
sphère	N	10.037	7.873	79.018	382	0	10	79	6	49	8	25	43	9	5	23	68	70	82
stabilité	N	4.308	8.882	38.268	185	0	10	62	5	14	27	10	17	8	20	29	30	6	24
stable	A	4.856	10.948	53.161	257	0	10	72	5	19	50	19	17	26	38	29	16	5	38
statistique	A	26.932	2.435	65.572	317	0	10	75	5	12	21	29	32	15	49	51	45	17	46
statistique	N	7.086	9.282	65.779	318	0	10	68	7	17	122	11	51	3	9	28	29	23	25
statut	N	8.409	29.249	245.948	1189	0	10	95	6	170	16	86	124	240	37	120	105	82	209
stratégie	N	7.474	34.070	254.636	1231	0	10	94	6	48	101	108	123	34	273	72	184	164	124
stratégique	A	4.002	16.282	65.159	315	0	10	67	6	16	66	53	27	5	7	21	39	50	31
strict	A	3.612	11.797	42.612	206	0	10	81	5	22	30	15	24	21	10	20	18	17	29
strictement	ADV	7.398	7.913	58.539	283	0	10	70	9	20	134	11	20	23	14	23	13	8	17
structuration	N	115.231	0.416	47.990	232	0	9	60	3	10	0	29	9	26	30	29	38	24	37
structure	N	7.746	35.704	276.562	1382	45	10	99	5	82	107	186	97	278	108	138	178	50	158
structurel	A	14.576	3.236	47.162	228	0	10	63	5	11	58	23	14	3	11	27	35	11	35
structurer	V	20.421	3.940	80.466	389	0	10	90	3	20	11	42	20	35	36	39	82	41	63
subjectif	A	30.063	2.002	60.194	291	0	10	61	4	34	13	15	3	34	52	45	14	35	46
subsister	V	2.303	7.905	18.203	88	0	10	56	4	11	13	8	19	9	3	2	6	5	12
substantiel	A	4.898	3.252	15.928	77	0	10	44	5	11	7	8	7	4	3	6	12	3	16
substituer	V	7.990	4.453	35.579	172	0	9	69	5	24	28	16	23	25	0	10	10	13	23
succéder	V	0.917	24.131	22.133	107	0	10	59	5	20	5	17	19	7	5	4	9	9	12
successif	A	5.065	6.615	33.510	162	0	10	71	5	20	11	14	16	13	20	14	17	11	26
succession	N	1.741	16.274	28.339	137	0	10	64	7	26	1	11	20	24	10	11	9	8	17
successivement	ADV	6.121	3.075	18.824	91	0	10	50	6	11	18	5	9	5	18	9	4	6	6
suffisamment	ADV	1.900	30.811	58.539	283	0	10	88	7	20	73	17	27	19	32	23	16	19	37
suffisant	A	2.152	21.816	46.956	227	0	10	78	8	10	87	19	14	18	17	19	16	13	14
suggérer	V	2.408	45.187	108.804	526	0	10	93	5	40	59	16	92	38	110	47	37	15	72
suite	N	1.111	46.548	51.713	250	0	10	84	7	19	54	12	26	47	22	18	18	19	15
suivant	A	5.418	29.057	157.415	761	0	10	97	7	33	237	27	57	141	88	62	27	34	55
sujet	N	4.656	108.706	506.168	2447	0	10	99	6	141	39	43	123	347	918	255	62	426	93
supplémentaire	A	1.323	41.887	55.436	268	0	10	82	6	7	66	24	27	22	36	13	19	21	33
support	N	9.878	8.586	84.810	410	0	10	72	6	45	21	14	7	60	48	29	41	116	29
supposé	A	5.844	4.389	25.650	124	0	10	63	4	14	20	7	5	17	8	11	17	13	12
supposer	V	2.545	87.362	222.367	1075	0	10	95	8	67	457	23	30	88	99	80	75	62	94
surprenant	A	1.111	13.407	14.893	72	0	10	45	5	4	9	8	11	1	9	7	6	9	8
surtout	ADV	1.252	156.944	196.510	950	0	10	100	4	126	21	127	137	57	44	93	111	84	150
susceptible	A	7.101	18.293	129.903	628	0	10	99	4	49	59	36	39	92	61	52	89	59	92
symbole	N	1.458	25.821	37.647	182	0	10	71	5	37	3	25	33	15	8	6	21	16	18
symbolique	A	11.009	11.349	124.939	604	0	10	87	6	157	5	31	51	52	18	43	77	73	97
symboliser	V	3.273	5.182	16.962	82	0	10	44	7	27	1	8	13	2	5	4	10	5	7
synthèse	N	7.551	5.863	44.266	214	0	10	80	6	30	14	10	29	9	34	25	19	30	14
systématique	A	14.165	4.629	65.572	317	0	10	89	5	40	19	14	26	46	44	26	50	27	25
systématiquement	ADV	6.709	6.567	44.060	213	0	10	80	5	21	16	16	19	26	25	27	25	21	17
système	N	3.852	116.042	447.008	2315	154	10	99	4	242	299	243	170	95	264	313	224	155	310
tableau	N	5.136	55.462	284.836	1377	0	10	93	7	72	205	35	106	95	285	286	102	72	119
tâche	N	5.094	43.000	219.057	1059	0	10	88	8	74	10	7	34	42	556	197	29	61	49
taille	N	1.568	62.134	97.428	471	0	10	76	7	18	134	74	29	11	76	33	19	34	43
tantôt	ADV	3.922	8.385	32.890	159	0	10	43	6	20	6	13	35	37	4	12	4	8	20
tardivement	ADV	5.659	2.010	11.377	55	0	10	40	5	8	4	7	8	5	6	3	4	2	8
taux	N	7.886	48.502	382.470	1849	0	10	78	9	16	1308	100	43	14	101	122	33	29	83
technique	N	4.477	29.569	132.386	640	0	10	86	6	85	41	27	64	23	39	60	94	140	67
technologie	N	3.132	27.142	85.016	411	0	10	68	8	13	122	30	7	4	21	28	39	112	35
témoignage	N	2.050	28.152	57.712	279	0	9	62	7	51	0	9	113	20	1	11	22	38	14
témoigner	V	3.103	36.593	113.562	549	0	10	91	5	65	2	56	116	46	26	43	58	65	72
temporel	A	28.562	3.404	97.221	470	0	10	78	7	17	162	24	23	78	78	20	9	31	28
tendance	N	4.212	33.494	141.073	682	0	10	96	4	49	41	63	66	25	68	92	93	65	120
tendre	V	1.488	104.133	154.933	749	0	10	98	6	108	94	56	53	33	43	52	135	55	120
tentative	N	1.544	36.977	57.091	276	0	10	90	6	27	8	18	64	18	23	19	42	24	33
tenter	V	0.896	152.980	137.143	663	0	10	99	5	85	27	45	92	50	33	77	88	83	83
terme	N	8.447	65.626	554.365	2878	198	10	100	6	288	524	241	272	464	162	195	221	269	242
terrain	N	1.648	83.958	138.384	669	0	10	86	6	213	4	96	42	13	13	54	98	99	37
territoire	N	3.588	61.285	219.884	1063	0	10	73	8	69	4	591	106	1	5	16	143	59	69
test	N	5.060	45.291	229.193	1108	0	10	59	7	11	399	13	4	38	322	214	7	86	14
tester	V	2.878	25.517	73.433	355	0	10	60	8	5	85	9	10	30	153	21	9	16	17
texte	N	3.961	77.559	307.176	1485	0	10	94	4	188	14	63	250	350	131	133	112	154	90
thématique	N	10.700	2.803	29.994	145	0	9	55	6	11	0	12	5	13	9	15	37	31	12
thème	N	2.264	43.128	97.634	472	0	10	90	5	45	17	36	47	50	47	36	72	58	64
théorie	N	10.621	24.716	262.496	1269	0	10	94	5	82	201	75	42	287	130	128	85	54	185
théorique	A	29.999	4.910	147.279	712	0	10	94	5	67	127	41	26	80	93	87	27	57	107
thèse	N	8.802	12.878	113.355	548	0	10	84	5	61	10	16	132	72	9	43	89	33	83
tiers	N	2.076	26.109	54.195	262	0	10	75	4	14	11	33	46	28	7	19	45	26	33
total	A	2.325	43.329	100.737	487	0	10	92	7	47	147	58	35	34	54	34	25	19	34
total	N	1.673	32.268	53.989	261	0	10	79	6	15	33	56	33	9	25	19	30	15	26
totalement	ADV	1.298	46.204	59.987	290	0	10	84	4	47	27	40	26	26	16	30	22	23	33
totalité	N	3.985	8.201	32.683	158	0	10	74	6	16	12	12	14	21	10	18	8	17	30
toutefois	ADV	3.803	51.674	196.510	950	0	10	100	5	80	97	113	144	71	92	74	79	92	108
tradition	N	3.015	34.166	103.013	498	0	10	83	6	103	2	32	96	44	8	32	46	33	102
traditionnel	A	3.832	36.761	140.867	681	0	10	96	7	69	42	67	106	41	17	58	60	87	134
traditionnellement	ADV	5.447	4.405	23.995	116	0	10	56	6	11	7	15	15	9	7	11	13	14	14
traduction	N	4.382	12.838	56.264	272	0	9	76	4	39	0	22	35	31	33	27	33	32	20
traduire	V	4.521	31.659	143.142	692	0	10	98	5	54	52	94	68	53	76	67	67	72	89
trait	N	3.995	29.825	119.147	576	0	10	85	6	62	12	9	25	160	148	32	43	52	33
traitement	N	3.955	40.165	158.863	768	0	10	92	6	38	14	32	28	75	301	81	52	108	39
traiter	V	1.659	82.044	136.109	658	0	10	96	6	64	61	45	64	98	75	54	53	74	70
transfert	N	3.904	18.861	73.640	356	0	10	71	6	8	110	51	22	9	17	35	28	51	25
transformation	N	9.853	13.687	134.868	652	0	10	94	5	52	13	85	61	16	30	74	133	57	131
transformer	V	1.449	61.245	88.740	429	0	10	90	4	51	13	40	67	9	20	46	67	49	67
transition	N	11.728	4.621	54.195	262	0	10	49	7	8	57	87	8	5	2	5	12	5	73
transmission	N	3.612	12.598	45.508	220	0	10	53	7	44	12	1	14	4	13	55	15	48	14
travail	N	2.935	370.351	1086.803	5539	285	10	100	6	440	446	271	365	217	1283	539	501	624	853
type	N	3.253	180.330	586.634	2836	0	10	100	6	225	301	171	153	568	434	263	194	210	317
typique	A	5.640	5.318	29.994	145	0	10	55	5	16	1	3	8	20	20	22	13	11	31
typologie	N	146.110	0.280	40.957	198	0	10	66	5	25	6	26	15	16	32	23	20	22	13
ultérieur	A	13.229	2.299	30.407	147	0	10	67	5	11	22	4	15	16	22	29	9	13	6
uniquement	ADV	2.614	31.964	83.568	404	0	10	95	7	32	63	24	27	37	72	33	42	32	42
unité	N	5.208	48.102	250.498	1211	0	10	93	7	92	272	71	32	263	213	77	76	45	70
univers	N	2.096	40.469	84.810	410	0	10	73	6	65	4	18	32	23	7	33	67	58	103
université	N	4.216	65.161	274.700	1328	0	10	100	5	96	32	85	168	39	115	118	312	163	200
usage	N	8.092	35.840	290.007	1402	0	10	94	6	131	17	109	187	148	50	146	173	305	136
utile	A	1.323	34.863	46.128	223	0	10	81	6	13	11	10	33	21	29	36	23	30	17
utilisation	N	8.535	16.675	142.315	688	0	10	94	6	29	74	55	47	60	208	62	29	98	26
utiliser	V	2.649	180.218	477.416	2308	0	10	100	5	165	370	136	209	238	433	201	147	243	166
utilité	N	15.501	9.034	140.039	677	0	10	64	9	30	512	2	11	3	18	53	13	15	20
valable	A	1.222	8.970	10.963	53	0	10	41	4	3	6	5	6	6	1	10	1	5	10
valeur	N	6.945	78.752	546.918	2763	119	10	100	6	231	584	255	142	524	164	297	151	158	257
valider	V	4.563	10.788	49.231	238	0	10	73	7	11	65	14	9	26	47	13	20	18	15
validité	N	18.653	1.730	32.269	156	0	10	50	6	6	27	4	5	10	46	16	16	14	12
variable	A	28.269	3.220	91.015	440	0	10	88	5	17	70	46	13	41	100	65	40	20	28
variable	N	130.550	2.050	267.667	1294	0	10	70	7	11	532	52	4	26	242	252	51	34	90
variation	N	21.116	6.015	127.007	614	0	10	79	6	23	169	29	27	149	88	55	40	9	25
varié	A	5.250	5.398	28.339	137	0	10	66	5	23	1	6	10	11	14	20	12	12	28
varier	V	8.893	11.885	105.702	511	0	10	95	5	24	69	66	32	52	97	68	29	23	51
variété	N	3.679	11.076	40.750	197	0	10	61	5	28	25	14	15	20	3	19	11	40	22
vaste	A	1.259	37.146	46.749	226	0	10	79	6	20	7	52	38	11	5	16	25	24	28
véhiculer	V	5.538	3.772	20.892	101	0	9	47	5	7	0	10	7	24	9	23	6	10	5
vérifier	V	1.133	82.188	93.084	450	0	10	80	8	16	238	16	15	29	58	24	15	26	13
véritable	A	1.766	70.968	125.353	606	0	10	97	5	85	20	69	152	24	15	36	56	66	83
véritablement	ADV	4.257	7.192	30.614	148	0	10	66	6	13	8	21	17	12	3	14	26	18	16
version	N	2.372	34.623	82.120	397	0	10	91	5	66	22	9	41	39	73	42	42	43	20
vertical	A	4.772	4.942	23.581	114	0	10	42	4	8	16	10	7	16	28	10	5	10	4
viser	V	3.049	62.758	191.339	925	0	10	98	3	65	33	77	67	82	92	97	145	141	126
vision	N	2.458	48.550	119.354	577	0	10	93	4	65	19	94	55	30	38	56	69	67	84
vocabulaire	N	4.487	5.855	26.270	127	0	10	55	5	20	1	11	25	7	11	23	9	8	12
voie	N	1.492	71.696	106.943	517	0	10	97	5	50	15	66	69	10	86	53	62	29	77
voire	ADV	4.216	40.622	171.274	828	0	10	97	5	93	22	112	114	57	35	78	118	108	91
voisin	A	1.019	33.301	33.924	164	0	10	61	7	16	20	41	24	8	14	11	7	3	20
volontairement	ADV	2.090	6.928	14.480	70	0	10	48	6	6	3	6	16	4	7	6	10	5	7
volontiers	ADV	1.166	18.268	21.306	103	0	9	54	5	16	0	3	19	4	5	14	8	10	24
volume	N	2.558	21.913	56.057	271	0	10	65	7	24	69	35	77	11	2	16	8	19	10
vraisemblablement	ADV	3.100	7.072	21.926	106	0	10	49	7	9	4	5	37	7	6	9	6	9	14
zone	N	1.928	94.506	182.237	881	0	10	86	8	27	28	405	47	95	44	48	62	62	63
